Spark Command: /usr/lib/jvm/java-8-openjdk-amd64/jre/bin/java -cp /home/bigdata/spark-2.1.0-bin-hadoop2.7/conf/:/home/bigdata/spark-2.1.0-bin-hadoop2.7/jars/* -Xmx1g org.apache.spark.deploy.master.Master --host bigdata-VirtualBox --port 7077 --webui-port 8080
========================================
Using Spark's default log4j profile: org/apache/spark/log4j-defaults.properties
17/05/16 15:12:38 INFO Master: Started daemon with process name: 18098@bigdata-VirtualBox
17/05/16 15:12:38 INFO SignalUtils: Registered signal handler for TERM
17/05/16 15:12:38 INFO SignalUtils: Registered signal handler for HUP
17/05/16 15:12:38 INFO SignalUtils: Registered signal handler for INT
17/05/16 15:12:38 WARN Utils: Your hostname, bigdata-VirtualBox resolves to a loopback address: 127.0.1.1; using 10.0.2.15 instead (on interface enp0s3)
17/05/16 15:12:38 WARN Utils: Set SPARK_LOCAL_IP if you need to bind to another address
17/05/16 15:12:39 WARN NativeCodeLoader: Unable to load native-hadoop library for your platform... using builtin-java classes where applicable
17/05/16 15:12:39 INFO SecurityManager: Changing view acls to: bigdata
17/05/16 15:12:39 INFO SecurityManager: Changing modify acls to: bigdata
17/05/16 15:12:39 INFO SecurityManager: Changing view acls groups to: 
17/05/16 15:12:39 INFO SecurityManager: Changing modify acls groups to: 
17/05/16 15:12:39 INFO SecurityManager: SecurityManager: authentication disabled; ui acls disabled; users  with view permissions: Set(bigdata); groups with view permissions: Set(); users  with modify permissions: Set(bigdata); groups with modify permissions: Set()
17/05/16 15:12:39 INFO Utils: Successfully started service 'sparkMaster' on port 7077.
17/05/16 15:12:39 INFO Master: Starting Spark master at spark://bigdata-VirtualBox:7077
17/05/16 15:12:39 INFO Master: Running Spark version 2.1.0
17/05/16 15:12:40 INFO Utils: Successfully started service 'MasterUI' on port 8080.
17/05/16 15:12:40 INFO MasterWebUI: Bound MasterWebUI to 0.0.0.0, and started at http://10.0.2.15:8080
17/05/16 15:12:40 INFO Utils: Successfully started service on port 6066.
17/05/16 15:12:40 INFO StandaloneRestServer: Started REST server for submitting applications on port 6066
17/05/16 15:12:40 INFO Master: I have been elected leader! New state: ALIVE
17/05/16 15:15:30 INFO Master: Registering worker 10.0.2.15:37297 with 2 cores, 1024.0 MB RAM
17/05/16 15:18:42 INFO Master: Registering app Spark shell
17/05/16 15:18:42 INFO Master: Registered app Spark shell with ID app-20170516151842-0000
17/05/16 15:18:42 INFO Master: Launching executor app-20170516151842-0000/0 on worker worker-20170516151529-10.0.2.15-37297
17/05/16 15:47:57 INFO Master: Received unregister request from application app-20170516151842-0000
17/05/16 15:47:57 INFO Master: Removing app app-20170516151842-0000
17/05/16 15:47:58 INFO Master: 127.0.0.1:51306 got disassociated, removing it.
17/05/16 15:47:58 INFO Master: 10.0.2.15:35648 got disassociated, removing it.
17/05/16 15:47:59 WARN Master: Got status update for unknown executor app-20170516151842-0000/0
