Spark Command: /usr/lib/jvm/java-8-openjdk-amd64/jre/bin/java -cp /home/bigdata/spark-2.1.0-bin-hadoop2.7/conf/:/home/bigdata/spark-2.1.0-bin-hadoop2.7/jars/* -Xmx1g org.apache.spark.deploy.master.Master --host bigdata-VirtualBox --port 7077 --webui-port 8080
========================================
Using Spark's default log4j profile: org/apache/spark/log4j-defaults.properties
17/02/01 20:55:20 INFO Master: Started daemon with process name: 4729@bigdata-VirtualBox
17/02/01 20:55:20 INFO SignalUtils: Registered signal handler for TERM
17/02/01 20:55:20 INFO SignalUtils: Registered signal handler for HUP
17/02/01 20:55:20 INFO SignalUtils: Registered signal handler for INT
17/02/01 20:55:20 WARN Utils: Your hostname, bigdata-VirtualBox resolves to a loopback address: 127.0.1.1; using 10.0.2.15 instead (on interface enp0s3)
17/02/01 20:55:20 WARN Utils: Set SPARK_LOCAL_IP if you need to bind to another address
17/02/01 20:55:20 WARN NativeCodeLoader: Unable to load native-hadoop library for your platform... using builtin-java classes where applicable
17/02/01 20:55:20 INFO SecurityManager: Changing view acls to: bigdata
17/02/01 20:55:20 INFO SecurityManager: Changing modify acls to: bigdata
17/02/01 20:55:20 INFO SecurityManager: Changing view acls groups to: 
17/02/01 20:55:20 INFO SecurityManager: Changing modify acls groups to: 
17/02/01 20:55:20 INFO SecurityManager: SecurityManager: authentication disabled; ui acls disabled; users  with view permissions: Set(bigdata); groups with view permissions: Set(); users  with modify permissions: Set(bigdata); groups with modify permissions: Set()
17/02/01 20:55:21 INFO Utils: Successfully started service 'sparkMaster' on port 7077.
17/02/01 20:55:21 INFO Master: Starting Spark master at spark://bigdata-VirtualBox:7077
17/02/01 20:55:21 INFO Master: Running Spark version 2.1.0
17/02/01 20:55:21 INFO Utils: Successfully started service 'MasterUI' on port 8080.
17/02/01 20:55:21 INFO MasterWebUI: Bound MasterWebUI to 0.0.0.0, and started at http://10.0.2.15:8080
17/02/01 20:55:21 INFO Utils: Successfully started service on port 6066.
17/02/01 20:55:21 INFO StandaloneRestServer: Started REST server for submitting applications on port 6066
17/02/01 20:55:21 INFO Master: I have been elected leader! New state: ALIVE
17/02/01 20:56:15 INFO Master: Registering worker 10.0.2.15:40950 with 4 cores, 2.9 GB RAM
17/02/01 21:31:24 INFO Master: Registering app Wordcount
17/02/01 21:31:24 INFO Master: Registered app Wordcount with ID app-20170201213124-0000
17/02/01 21:31:24 INFO Master: Launching executor app-20170201213124-0000/0 on worker worker-20170201205615-10.0.2.15-40950
17/02/01 21:31:29 INFO Master: Received unregister request from application app-20170201213124-0000
17/02/01 21:31:29 INFO Master: Removing app app-20170201213124-0000
17/02/01 21:31:29 INFO Master: 127.0.0.1:53768 got disassociated, removing it.
17/02/01 21:31:29 INFO Master: 10.0.2.15:43971 got disassociated, removing it.
17/02/01 21:31:29 WARN Master: Got status update for unknown executor app-20170201213124-0000/0
17/02/01 21:32:23 INFO Master: 127.0.0.1:52790 got disassociated, removing it.
17/02/01 21:32:23 INFO Master: 10.0.2.15:40950 got disassociated, removing it.
17/02/01 21:32:23 INFO Master: Removing worker worker-20170201205615-10.0.2.15-40950 on 10.0.2.15:40950
17/02/01 21:32:29 ERROR Master: RECEIVED SIGNAL TERM
