Spark Command: /usr/lib/jvm/java-8-openjdk-amd64/jre/bin/java -cp /home/bigdata/spark-2.1.0-bin-hadoop2.7/conf/:/home/bigdata/spark-2.1.0-bin-hadoop2.7/jars/* -Xmx1g org.apache.spark.deploy.master.Master --host bigdata-VirtualBox --port 7077 --webui-port 8080
========================================
Using Spark's default log4j profile: org/apache/spark/log4j-defaults.properties
17/05/16 16:20:27 INFO Master: Started daemon with process name: 2518@bigdata-VirtualBox
17/05/16 16:20:27 INFO SignalUtils: Registered signal handler for TERM
17/05/16 16:20:27 INFO SignalUtils: Registered signal handler for HUP
17/05/16 16:20:27 INFO SignalUtils: Registered signal handler for INT
17/05/16 16:20:27 WARN Utils: Your hostname, bigdata-VirtualBox resolves to a loopback address: 127.0.1.1; using 10.0.2.15 instead (on interface enp0s3)
17/05/16 16:20:27 WARN Utils: Set SPARK_LOCAL_IP if you need to bind to another address
17/05/16 16:20:28 WARN NativeCodeLoader: Unable to load native-hadoop library for your platform... using builtin-java classes where applicable
17/05/16 16:20:28 INFO SecurityManager: Changing view acls to: bigdata
17/05/16 16:20:28 INFO SecurityManager: Changing modify acls to: bigdata
17/05/16 16:20:28 INFO SecurityManager: Changing view acls groups to: 
17/05/16 16:20:28 INFO SecurityManager: Changing modify acls groups to: 
17/05/16 16:20:28 INFO SecurityManager: SecurityManager: authentication disabled; ui acls disabled; users  with view permissions: Set(bigdata); groups with view permissions: Set(); users  with modify permissions: Set(bigdata); groups with modify permissions: Set()
17/05/16 16:20:28 INFO Utils: Successfully started service 'sparkMaster' on port 7077.
17/05/16 16:20:28 INFO Master: Starting Spark master at spark://bigdata-VirtualBox:7077
17/05/16 16:20:28 INFO Master: Running Spark version 2.1.0
17/05/16 16:20:29 INFO Utils: Successfully started service 'MasterUI' on port 8080.
17/05/16 16:20:29 INFO MasterWebUI: Bound MasterWebUI to 0.0.0.0, and started at http://10.0.2.15:8080
17/05/16 16:20:29 INFO Utils: Successfully started service on port 6066.
17/05/16 16:20:29 INFO StandaloneRestServer: Started REST server for submitting applications on port 6066
17/05/16 16:20:29 INFO Master: I have been elected leader! New state: ALIVE
17/05/16 16:21:00 INFO Master: Registering worker 10.0.2.15:34052 with 2 cores, 1024.0 MB RAM
17/05/16 16:21:29 INFO Master: Registering app Spark shell
17/05/16 16:21:29 INFO Master: Registered app Spark shell with ID app-20170516162129-0000
17/05/16 16:21:29 INFO Master: Launching executor app-20170516162129-0000/0 on worker worker-20170516162059-10.0.2.15-34052
17/05/16 16:26:08 INFO Master: Received unregister request from application app-20170516162129-0000
17/05/16 16:26:09 INFO Master: Removing app app-20170516162129-0000
17/05/16 16:26:09 INFO Master: 127.0.0.1:33562 got disassociated, removing it.
17/05/16 16:26:09 INFO Master: 10.0.2.15:38405 got disassociated, removing it.
17/05/16 16:26:09 WARN Master: Got status update for unknown executor app-20170516162129-0000/0
17/05/17 07:40:01 INFO Master: Registering app programa
17/05/17 07:40:01 INFO Master: Registered app programa with ID app-20170517074001-0001
17/05/17 07:40:01 INFO Master: Launching executor app-20170517074001-0001/0 on worker worker-20170516162059-10.0.2.15-34052
17/05/17 07:40:03 INFO Master: Received unregister request from application app-20170517074001-0001
17/05/17 07:40:03 INFO Master: Removing app app-20170517074001-0001
17/05/17 07:40:03 WARN Master: Got status update for unknown executor app-20170517074001-0001/0
17/05/17 07:40:03 INFO Master: 127.0.0.1:34176 got disassociated, removing it.
17/05/17 07:40:03 INFO Master: 10.0.2.15:43923 got disassociated, removing it.
17/05/17 07:43:48 INFO Master: Registering app programa
17/05/17 07:43:48 INFO Master: Registered app programa with ID app-20170517074348-0002
17/05/17 07:43:48 INFO Master: Launching executor app-20170517074348-0002/0 on worker worker-20170516162059-10.0.2.15-34052
17/05/17 07:43:50 INFO Master: Received unregister request from application app-20170517074348-0002
17/05/17 07:43:50 INFO Master: Removing app app-20170517074348-0002
17/05/17 07:43:50 WARN Master: Got status update for unknown executor app-20170517074348-0002/0
17/05/17 07:43:50 INFO Master: 127.0.0.1:34184 got disassociated, removing it.
17/05/17 07:43:50 INFO Master: 10.0.2.15:34986 got disassociated, removing it.
17/05/17 07:45:42 INFO Master: Registering app programa
17/05/17 07:45:42 INFO Master: Registered app programa with ID app-20170517074542-0003
17/05/17 07:45:42 INFO Master: Launching executor app-20170517074542-0003/0 on worker worker-20170516162059-10.0.2.15-34052
17/05/17 07:45:44 INFO Master: Received unregister request from application app-20170517074542-0003
17/05/17 07:45:44 INFO Master: Removing app app-20170517074542-0003
17/05/17 07:45:44 INFO Master: 127.0.0.1:34186 got disassociated, removing it.
17/05/17 07:45:44 INFO Master: 10.0.2.15:40465 got disassociated, removing it.
17/05/17 07:45:44 WARN Master: Got status update for unknown executor app-20170517074542-0003/0
17/05/17 07:47:19 INFO Master: Registering app programa
17/05/17 07:47:19 INFO Master: Registered app programa with ID app-20170517074719-0004
17/05/17 07:47:19 INFO Master: Launching executor app-20170517074719-0004/0 on worker worker-20170516162059-10.0.2.15-34052
17/05/17 07:47:21 INFO Master: Received unregister request from application app-20170517074719-0004
17/05/17 07:47:21 INFO Master: Removing app app-20170517074719-0004
17/05/17 07:47:21 WARN Master: Got status update for unknown executor app-20170517074719-0004/0
17/05/17 07:47:21 INFO Master: 127.0.0.1:34188 got disassociated, removing it.
17/05/17 07:47:21 INFO Master: 10.0.2.15:32885 got disassociated, removing it.
17/05/17 07:48:37 INFO Master: Registering app programa
17/05/17 07:48:37 INFO Master: Registered app programa with ID app-20170517074837-0005
17/05/17 07:48:37 INFO Master: Launching executor app-20170517074837-0005/0 on worker worker-20170516162059-10.0.2.15-34052
17/05/17 07:48:46 INFO Master: Received unregister request from application app-20170517074837-0005
17/05/17 07:48:46 INFO Master: Removing app app-20170517074837-0005
17/05/17 07:48:46 INFO Master: 127.0.0.1:34194 got disassociated, removing it.
17/05/17 07:48:46 INFO Master: 10.0.2.15:44115 got disassociated, removing it.
17/05/17 07:48:46 WARN Master: Got status update for unknown executor app-20170517074837-0005/0
17/05/17 07:50:08 INFO Master: Registering app programa
17/05/17 07:50:08 INFO Master: Registered app programa with ID app-20170517075008-0006
17/05/17 07:50:08 INFO Master: Launching executor app-20170517075008-0006/0 on worker worker-20170516162059-10.0.2.15-34052
17/05/17 07:50:16 INFO Master: Received unregister request from application app-20170517075008-0006
17/05/17 07:50:16 INFO Master: Removing app app-20170517075008-0006
17/05/17 07:50:16 INFO Master: 127.0.0.1:34208 got disassociated, removing it.
17/05/17 07:50:16 INFO Master: 10.0.2.15:37959 got disassociated, removing it.
17/05/17 07:50:16 WARN Master: Got status update for unknown executor app-20170517075008-0006/0
17/05/17 08:53:08 INFO Master: Driver submitted org.apache.spark.deploy.worker.DriverWrapper
17/05/17 08:53:08 INFO Master: Launching driver driver-20170517085308-0000 on worker worker-20170516162059-10.0.2.15-34052
17/05/17 08:53:08 INFO Master: Removing driver: driver-20170517085308-0000
17/05/17 08:53:43 INFO Master: Driver submitted org.apache.spark.deploy.worker.DriverWrapper
17/05/17 08:53:43 INFO Master: Launching driver driver-20170517085343-0001 on worker worker-20170516162059-10.0.2.15-34052
17/05/17 08:53:43 INFO Master: Removing driver: driver-20170517085343-0001
17/05/20 21:12:51 INFO Master: Registering app programa
17/05/20 21:12:52 INFO Master: Registered app programa with ID app-20170520211252-0007
17/05/20 21:12:52 INFO Master: Launching executor app-20170520211252-0007/0 on worker worker-20170516162059-10.0.2.15-34052
17/05/20 21:12:54 INFO Master: Received unregister request from application app-20170520211252-0007
17/05/20 21:12:54 INFO Master: Removing app app-20170520211252-0007
17/05/20 21:12:54 WARN Master: Got status update for unknown executor app-20170520211252-0007/0
17/05/20 21:12:54 INFO Master: 127.0.0.1:39504 got disassociated, removing it.
17/05/20 21:12:54 INFO Master: 10.0.2.15:40627 got disassociated, removing it.
17/05/20 21:13:41 INFO Master: Registering app programa
17/05/20 21:13:41 INFO Master: Registered app programa with ID app-20170520211341-0008
17/05/20 21:13:41 INFO Master: Launching executor app-20170520211341-0008/0 on worker worker-20170516162059-10.0.2.15-34052
17/05/20 21:13:43 INFO Master: Received unregister request from application app-20170520211341-0008
17/05/20 21:13:43 INFO Master: Removing app app-20170520211341-0008
17/05/20 21:13:43 INFO Master: 127.0.0.1:39508 got disassociated, removing it.
17/05/20 21:13:43 INFO Master: 10.0.2.15:41578 got disassociated, removing it.
17/05/20 21:13:43 WARN Master: Got status update for unknown executor app-20170520211341-0008/0
17/05/20 21:16:02 INFO Master: Registering app programa
17/05/20 21:16:02 INFO Master: Registered app programa with ID app-20170520211602-0009
17/05/20 21:16:02 INFO Master: Launching executor app-20170520211602-0009/0 on worker worker-20170516162059-10.0.2.15-34052
17/05/20 21:16:05 INFO Master: Received unregister request from application app-20170520211602-0009
17/05/20 21:16:05 INFO Master: Removing app app-20170520211602-0009
17/05/20 21:16:05 WARN Master: Got status update for unknown executor app-20170520211602-0009/0
17/05/20 21:16:05 INFO Master: 127.0.0.1:39518 got disassociated, removing it.
17/05/20 21:16:05 INFO Master: 10.0.2.15:35914 got disassociated, removing it.
17/05/20 21:17:28 INFO Master: Registering app programa
17/05/20 21:17:28 INFO Master: Registered app programa with ID app-20170520211728-0010
17/05/20 21:17:28 INFO Master: Launching executor app-20170520211728-0010/0 on worker worker-20170516162059-10.0.2.15-34052
17/05/20 21:17:30 INFO Master: Received unregister request from application app-20170520211728-0010
17/05/20 21:17:30 INFO Master: Removing app app-20170520211728-0010
17/05/20 21:17:30 WARN Master: Got status update for unknown executor app-20170520211728-0010/0
17/05/20 21:17:30 INFO Master: 127.0.0.1:39520 got disassociated, removing it.
17/05/20 21:17:30 INFO Master: 10.0.2.15:35583 got disassociated, removing it.
17/05/20 21:19:02 INFO Master: Registering app programa
17/05/20 21:19:02 INFO Master: Registered app programa with ID app-20170520211902-0011
17/05/20 21:19:02 INFO Master: Launching executor app-20170520211902-0011/0 on worker worker-20170516162059-10.0.2.15-34052
17/05/20 21:19:05 INFO Master: Received unregister request from application app-20170520211902-0011
17/05/20 21:19:05 INFO Master: Removing app app-20170520211902-0011
17/05/20 21:19:05 WARN Master: Got status update for unknown executor app-20170520211902-0011/0
17/05/20 21:19:05 INFO Master: 127.0.0.1:39540 got disassociated, removing it.
17/05/20 21:19:05 INFO Master: 10.0.2.15:46040 got disassociated, removing it.
17/05/20 21:21:55 INFO Master: Registering app programa
17/05/20 21:21:56 INFO Master: Registered app programa with ID app-20170520212156-0012
17/05/20 21:21:56 INFO Master: Launching executor app-20170520212156-0012/0 on worker worker-20170516162059-10.0.2.15-34052
17/05/20 21:22:03 INFO Master: Received unregister request from application app-20170520212156-0012
17/05/20 21:22:03 INFO Master: Removing app app-20170520212156-0012
17/05/20 21:22:03 INFO Master: 127.0.0.1:39562 got disassociated, removing it.
17/05/20 21:22:03 INFO Master: 10.0.2.15:39069 got disassociated, removing it.
17/05/20 21:22:03 WARN Master: Got status update for unknown executor app-20170520212156-0012/0
17/05/20 21:23:16 INFO Master: Registering app programa
17/05/20 21:23:16 INFO Master: Registered app programa with ID app-20170520212316-0013
17/05/20 21:23:16 INFO Master: Launching executor app-20170520212316-0013/0 on worker worker-20170516162059-10.0.2.15-34052
17/05/20 21:23:23 INFO Master: Received unregister request from application app-20170520212316-0013
17/05/20 21:23:23 INFO Master: Removing app app-20170520212316-0013
17/05/20 21:23:23 INFO Master: 127.0.0.1:39574 got disassociated, removing it.
17/05/20 21:23:23 INFO Master: 10.0.2.15:40435 got disassociated, removing it.
17/05/20 21:23:23 WARN Master: Got status update for unknown executor app-20170520212316-0013/0
17/05/20 21:25:49 INFO Master: Registering app programa
17/05/20 21:25:49 INFO Master: Registered app programa with ID app-20170520212549-0014
17/05/20 21:25:49 INFO Master: Launching executor app-20170520212549-0014/0 on worker worker-20170516162059-10.0.2.15-34052
17/05/20 21:25:55 INFO Master: Received unregister request from application app-20170520212549-0014
17/05/20 21:25:55 INFO Master: Removing app app-20170520212549-0014
17/05/20 21:25:56 WARN Master: Got status update for unknown executor app-20170520212549-0014/0
17/05/20 21:25:56 INFO Master: 127.0.0.1:39654 got disassociated, removing it.
17/05/20 21:25:56 INFO Master: 10.0.2.15:37574 got disassociated, removing it.
17/05/20 21:27:21 INFO Master: Registering app programa
17/05/20 21:27:21 INFO Master: Registered app programa with ID app-20170520212721-0015
17/05/20 21:27:21 INFO Master: Launching executor app-20170520212721-0015/0 on worker worker-20170516162059-10.0.2.15-34052
17/05/20 21:27:30 INFO Master: Received unregister request from application app-20170520212721-0015
17/05/20 21:27:30 INFO Master: Removing app app-20170520212721-0015
17/05/20 21:27:30 INFO Master: 127.0.0.1:39670 got disassociated, removing it.
17/05/20 21:27:30 INFO Master: 10.0.2.15:34911 got disassociated, removing it.
17/05/20 21:27:30 WARN Master: Got status update for unknown executor app-20170520212721-0015/0
17/05/20 21:28:29 INFO Master: Registering app programa
17/05/20 21:28:29 INFO Master: Registered app programa with ID app-20170520212829-0016
17/05/20 21:28:29 INFO Master: Launching executor app-20170520212829-0016/0 on worker worker-20170516162059-10.0.2.15-34052
17/05/20 21:28:35 INFO Master: Received unregister request from application app-20170520212829-0016
17/05/20 21:28:35 INFO Master: Removing app app-20170520212829-0016
17/05/20 21:28:35 WARN Master: Got status update for unknown executor app-20170520212829-0016/0
17/05/20 21:28:35 INFO Master: 127.0.0.1:39688 got disassociated, removing it.
17/05/20 21:28:35 INFO Master: 10.0.2.15:45302 got disassociated, removing it.
17/05/20 21:29:16 INFO Master: Registering app programa
17/05/20 21:29:16 INFO Master: Registered app programa with ID app-20170520212916-0017
17/05/20 21:29:16 INFO Master: Launching executor app-20170520212916-0017/0 on worker worker-20170516162059-10.0.2.15-34052
17/05/20 21:29:23 INFO Master: Received unregister request from application app-20170520212916-0017
17/05/20 21:29:23 INFO Master: Removing app app-20170520212916-0017
17/05/20 21:29:23 WARN Master: Got status update for unknown executor app-20170520212916-0017/0
17/05/20 21:29:23 INFO Master: 127.0.0.1:39700 got disassociated, removing it.
17/05/20 21:29:23 INFO Master: 10.0.2.15:42958 got disassociated, removing it.
17/05/20 21:30:44 INFO Master: Registering app programa
17/05/20 21:30:44 INFO Master: Registered app programa with ID app-20170520213044-0018
17/05/20 21:30:44 INFO Master: Launching executor app-20170520213044-0018/0 on worker worker-20170516162059-10.0.2.15-34052
17/05/20 21:30:50 INFO Master: Received unregister request from application app-20170520213044-0018
17/05/20 21:30:50 INFO Master: Removing app app-20170520213044-0018
17/05/20 21:30:50 INFO Master: 127.0.0.1:39712 got disassociated, removing it.
17/05/20 21:30:50 INFO Master: 10.0.2.15:37706 got disassociated, removing it.
17/05/20 21:30:51 WARN Master: Got status update for unknown executor app-20170520213044-0018/0
17/05/20 21:32:44 INFO Master: Registering app programa
17/05/20 21:32:44 INFO Master: Registered app programa with ID app-20170520213244-0019
17/05/20 21:32:44 INFO Master: Launching executor app-20170520213244-0019/0 on worker worker-20170516162059-10.0.2.15-34052
17/05/20 21:32:52 INFO Master: Received unregister request from application app-20170520213244-0019
17/05/20 21:32:52 INFO Master: Removing app app-20170520213244-0019
17/05/20 21:32:52 INFO Master: 127.0.0.1:39726 got disassociated, removing it.
17/05/20 21:32:52 INFO Master: 10.0.2.15:42391 got disassociated, removing it.
17/05/20 21:32:53 WARN Master: Got status update for unknown executor app-20170520213244-0019/0
17/05/20 21:34:12 INFO Master: Registering app programa
17/05/20 21:34:12 INFO Master: Registered app programa with ID app-20170520213412-0020
17/05/20 21:34:12 INFO Master: Launching executor app-20170520213412-0020/0 on worker worker-20170516162059-10.0.2.15-34052
17/05/20 21:34:19 INFO Master: Received unregister request from application app-20170520213412-0020
17/05/20 21:34:19 INFO Master: Removing app app-20170520213412-0020
17/05/20 21:34:19 INFO Master: 127.0.0.1:39740 got disassociated, removing it.
17/05/20 21:34:19 INFO Master: 10.0.2.15:41655 got disassociated, removing it.
17/05/20 21:34:20 WARN Master: Got status update for unknown executor app-20170520213412-0020/0
