Spark Command: /usr/lib/jvm/java-8-openjdk-amd64/jre/bin/java -cp /home/bigdata/spark-2.1.0-bin-hadoop2.7/conf/:/home/bigdata/spark-2.1.0-bin-hadoop2.7/jars/* -Xmx1g org.apache.spark.deploy.worker.Worker --webui-port 8081 spark://bigdata-VirtualBox:7077
========================================
Using Spark's default log4j profile: org/apache/spark/log4j-defaults.properties
17/05/16 15:15:28 INFO Worker: Started daemon with process name: 18209@bigdata-VirtualBox
17/05/16 15:15:28 INFO SignalUtils: Registered signal handler for TERM
17/05/16 15:15:28 INFO SignalUtils: Registered signal handler for HUP
17/05/16 15:15:28 INFO SignalUtils: Registered signal handler for INT
17/05/16 15:15:28 WARN Utils: Your hostname, bigdata-VirtualBox resolves to a loopback address: 127.0.1.1; using 10.0.2.15 instead (on interface enp0s3)
17/05/16 15:15:28 WARN Utils: Set SPARK_LOCAL_IP if you need to bind to another address
17/05/16 15:15:29 WARN NativeCodeLoader: Unable to load native-hadoop library for your platform... using builtin-java classes where applicable
17/05/16 15:15:29 INFO SecurityManager: Changing view acls to: bigdata
17/05/16 15:15:29 INFO SecurityManager: Changing modify acls to: bigdata
17/05/16 15:15:29 INFO SecurityManager: Changing view acls groups to: 
17/05/16 15:15:29 INFO SecurityManager: Changing modify acls groups to: 
17/05/16 15:15:29 INFO SecurityManager: SecurityManager: authentication disabled; ui acls disabled; users  with view permissions: Set(bigdata); groups with view permissions: Set(); users  with modify permissions: Set(bigdata); groups with modify permissions: Set()
17/05/16 15:15:29 INFO Utils: Successfully started service 'sparkWorker' on port 37297.
17/05/16 15:15:29 INFO Worker: Starting Spark worker 10.0.2.15:37297 with 2 cores, 1024.0 MB RAM
17/05/16 15:15:29 INFO Worker: Running Spark version 2.1.0
17/05/16 15:15:29 INFO Worker: Spark home: /home/bigdata/spark-2.1.0-bin-hadoop2.7
17/05/16 15:15:30 INFO Utils: Successfully started service 'WorkerUI' on port 8081.
17/05/16 15:15:30 INFO WorkerWebUI: Bound WorkerWebUI to 0.0.0.0, and started at http://10.0.2.15:8081
17/05/16 15:15:30 INFO Worker: Connecting to master bigdata-VirtualBox:7077...
17/05/16 15:15:30 INFO TransportClientFactory: Successfully created connection to bigdata-VirtualBox/127.0.1.1:7077 after 40 ms (0 ms spent in bootstraps)
17/05/16 15:15:30 INFO Worker: Successfully registered with master spark://bigdata-VirtualBox:7077
17/05/16 15:18:42 INFO Worker: Asked to launch executor app-20170516151842-0000/0 for Spark shell
17/05/16 15:18:42 INFO SecurityManager: Changing view acls to: bigdata
17/05/16 15:18:42 INFO SecurityManager: Changing modify acls to: bigdata
17/05/16 15:18:42 INFO SecurityManager: Changing view acls groups to: 
17/05/16 15:18:42 INFO SecurityManager: Changing modify acls groups to: 
17/05/16 15:18:42 INFO SecurityManager: SecurityManager: authentication disabled; ui acls disabled; users  with view permissions: Set(bigdata); groups with view permissions: Set(); users  with modify permissions: Set(bigdata); groups with modify permissions: Set()
17/05/16 15:18:43 INFO ExecutorRunner: Launch command: "/usr/lib/jvm/java-8-openjdk-amd64/jre/bin/java" "-cp" "/home/bigdata/spark-2.1.0-bin-hadoop2.7/conf/:/home/bigdata/spark-2.1.0-bin-hadoop2.7/jars/*" "-Xmx1024M" "-Dspark.driver.port=35648" "org.apache.spark.executor.CoarseGrainedExecutorBackend" "--driver-url" "spark://CoarseGrainedScheduler@10.0.2.15:35648" "--executor-id" "0" "--hostname" "10.0.2.15" "--cores" "2" "--app-id" "app-20170516151842-0000" "--worker-url" "spark://Worker@10.0.2.15:37297"
17/05/16 15:47:58 INFO Worker: Asked to kill executor app-20170516151842-0000/0
17/05/16 15:47:58 INFO ExecutorRunner: Runner thread for executor app-20170516151842-0000/0 interrupted
17/05/16 15:47:58 INFO ExecutorRunner: Killing process!
17/05/16 15:47:59 INFO Worker: Executor app-20170516151842-0000/0 finished with state KILLED exitStatus 143
17/05/16 15:47:59 INFO Worker: Cleaning up local directories for application app-20170516151842-0000
17/05/16 15:47:59 INFO ExternalShuffleBlockResolver: Application app-20170516151842-0000 removed, cleanupLocalDirs = true
