Spark Command: /usr/lib/jvm/java-8-openjdk-amd64/jre/bin/java -cp /home/bigdata/spark-2.1.0-bin-hadoop2.7/conf/:/home/bigdata/spark-2.1.0-bin-hadoop2.7/jars/* -Xmx1g org.apache.spark.deploy.worker.Worker --webui-port 8081 spark://bigdata-VirtualBox:7077
========================================
Using Spark's default log4j profile: org/apache/spark/log4j-defaults.properties
17/02/01 20:56:14 INFO Worker: Started daemon with process name: 4815@bigdata-VirtualBox
17/02/01 20:56:14 INFO SignalUtils: Registered signal handler for TERM
17/02/01 20:56:14 INFO SignalUtils: Registered signal handler for HUP
17/02/01 20:56:14 INFO SignalUtils: Registered signal handler for INT
17/02/01 20:56:14 WARN Utils: Your hostname, bigdata-VirtualBox resolves to a loopback address: 127.0.1.1; using 10.0.2.15 instead (on interface enp0s3)
17/02/01 20:56:14 WARN Utils: Set SPARK_LOCAL_IP if you need to bind to another address
17/02/01 20:56:14 WARN NativeCodeLoader: Unable to load native-hadoop library for your platform... using builtin-java classes where applicable
17/02/01 20:56:15 INFO SecurityManager: Changing view acls to: bigdata
17/02/01 20:56:15 INFO SecurityManager: Changing modify acls to: bigdata
17/02/01 20:56:15 INFO SecurityManager: Changing view acls groups to: 
17/02/01 20:56:15 INFO SecurityManager: Changing modify acls groups to: 
17/02/01 20:56:15 INFO SecurityManager: SecurityManager: authentication disabled; ui acls disabled; users  with view permissions: Set(bigdata); groups with view permissions: Set(); users  with modify permissions: Set(bigdata); groups with modify permissions: Set()
17/02/01 20:56:15 INFO Utils: Successfully started service 'sparkWorker' on port 40950.
17/02/01 20:56:15 INFO Worker: Starting Spark worker 10.0.2.15:40950 with 4 cores, 2.9 GB RAM
17/02/01 20:56:15 INFO Worker: Running Spark version 2.1.0
17/02/01 20:56:15 INFO Worker: Spark home: /home/bigdata/spark-2.1.0-bin-hadoop2.7
17/02/01 20:56:15 INFO Utils: Successfully started service 'WorkerUI' on port 8081.
17/02/01 20:56:15 INFO WorkerWebUI: Bound WorkerWebUI to 0.0.0.0, and started at http://10.0.2.15:8081
17/02/01 20:56:15 INFO Worker: Connecting to master bigdata-VirtualBox:7077...
17/02/01 20:56:15 INFO TransportClientFactory: Successfully created connection to bigdata-VirtualBox/127.0.1.1:7077 after 58 ms (0 ms spent in bootstraps)
17/02/01 20:56:15 INFO Worker: Successfully registered with master spark://bigdata-VirtualBox:7077
17/02/01 21:31:25 INFO Worker: Asked to launch executor app-20170201213124-0000/0 for Wordcount
17/02/01 21:31:25 INFO SecurityManager: Changing view acls to: bigdata
17/02/01 21:31:25 INFO SecurityManager: Changing modify acls to: bigdata
17/02/01 21:31:25 INFO SecurityManager: Changing view acls groups to: 
17/02/01 21:31:25 INFO SecurityManager: Changing modify acls groups to: 
17/02/01 21:31:25 INFO SecurityManager: SecurityManager: authentication disabled; ui acls disabled; users  with view permissions: Set(bigdata); groups with view permissions: Set(); users  with modify permissions: Set(bigdata); groups with modify permissions: Set()
17/02/01 21:31:25 INFO ExecutorRunner: Launch command: "/usr/lib/jvm/java-8-openjdk-amd64/jre/bin/java" "-cp" "/home/bigdata/spark-2.1.0-bin-hadoop2.7/conf/:/home/bigdata/spark-2.1.0-bin-hadoop2.7/jars/*" "-Xmx1024M" "-Dspark.driver.port=43971" "org.apache.spark.executor.CoarseGrainedExecutorBackend" "--driver-url" "spark://CoarseGrainedScheduler@10.0.2.15:43971" "--executor-id" "0" "--hostname" "10.0.2.15" "--cores" "4" "--app-id" "app-20170201213124-0000" "--worker-url" "spark://Worker@10.0.2.15:40950"
17/02/01 21:31:29 INFO Worker: Asked to kill executor app-20170201213124-0000/0
17/02/01 21:31:29 INFO ExecutorRunner: Runner thread for executor app-20170201213124-0000/0 interrupted
17/02/01 21:31:29 INFO ExecutorRunner: Killing process!
17/02/01 21:31:29 INFO Worker: Executor app-20170201213124-0000/0 finished with state KILLED exitStatus 0
17/02/01 21:31:29 INFO Worker: Cleaning up local directories for application app-20170201213124-0000
17/02/01 21:31:29 INFO ExternalShuffleBlockResolver: Application app-20170201213124-0000 removed, cleanupLocalDirs = true
17/02/01 21:32:23 ERROR Worker: RECEIVED SIGNAL TERM
17/02/01 21:32:23 INFO ShutdownHookManager: Shutdown hook called
17/02/01 21:32:23 INFO ShutdownHookManager: Deleting directory /tmp/spark-8a4e35de-096c-4786-be20-fb7c3cc44466
