Spark Command: /usr/lib/jvm/java-8-openjdk-amd64/jre/bin/java -cp /home/bigdata/spark-2.1.0-bin-hadoop2.7/conf/:/home/bigdata/spark-2.1.0-bin-hadoop2.7/jars/* -Xmx1g org.apache.spark.deploy.worker.Worker --webui-port 8081 spark://bigdata-VirtualBox:7077
========================================
Using Spark's default log4j profile: org/apache/spark/log4j-defaults.properties
17/05/16 16:20:58 INFO Worker: Started daemon with process name: 2587@bigdata-VirtualBox
17/05/16 16:20:58 INFO SignalUtils: Registered signal handler for TERM
17/05/16 16:20:58 INFO SignalUtils: Registered signal handler for HUP
17/05/16 16:20:58 INFO SignalUtils: Registered signal handler for INT
17/05/16 16:20:58 WARN Utils: Your hostname, bigdata-VirtualBox resolves to a loopback address: 127.0.1.1; using 10.0.2.15 instead (on interface enp0s3)
17/05/16 16:20:58 WARN Utils: Set SPARK_LOCAL_IP if you need to bind to another address
17/05/16 16:20:59 WARN NativeCodeLoader: Unable to load native-hadoop library for your platform... using builtin-java classes where applicable
17/05/16 16:20:59 INFO SecurityManager: Changing view acls to: bigdata
17/05/16 16:20:59 INFO SecurityManager: Changing modify acls to: bigdata
17/05/16 16:20:59 INFO SecurityManager: Changing view acls groups to: 
17/05/16 16:20:59 INFO SecurityManager: Changing modify acls groups to: 
17/05/16 16:20:59 INFO SecurityManager: SecurityManager: authentication disabled; ui acls disabled; users  with view permissions: Set(bigdata); groups with view permissions: Set(); users  with modify permissions: Set(bigdata); groups with modify permissions: Set()
17/05/16 16:20:59 INFO Utils: Successfully started service 'sparkWorker' on port 34052.
17/05/16 16:20:59 INFO Worker: Starting Spark worker 10.0.2.15:34052 with 2 cores, 1024.0 MB RAM
17/05/16 16:20:59 INFO Worker: Running Spark version 2.1.0
17/05/16 16:20:59 INFO Worker: Spark home: /home/bigdata/spark-2.1.0-bin-hadoop2.7
17/05/16 16:21:00 INFO Utils: Successfully started service 'WorkerUI' on port 8081.
17/05/16 16:21:00 INFO WorkerWebUI: Bound WorkerWebUI to 0.0.0.0, and started at http://10.0.2.15:8081
17/05/16 16:21:00 INFO Worker: Connecting to master bigdata-VirtualBox:7077...
17/05/16 16:21:00 INFO TransportClientFactory: Successfully created connection to bigdata-VirtualBox/127.0.1.1:7077 after 45 ms (0 ms spent in bootstraps)
17/05/16 16:21:00 INFO Worker: Successfully registered with master spark://bigdata-VirtualBox:7077
17/05/16 16:21:29 INFO Worker: Asked to launch executor app-20170516162129-0000/0 for Spark shell
17/05/16 16:21:29 INFO SecurityManager: Changing view acls to: bigdata
17/05/16 16:21:29 INFO SecurityManager: Changing modify acls to: bigdata
17/05/16 16:21:29 INFO SecurityManager: Changing view acls groups to: 
17/05/16 16:21:29 INFO SecurityManager: Changing modify acls groups to: 
17/05/16 16:21:29 INFO SecurityManager: SecurityManager: authentication disabled; ui acls disabled; users  with view permissions: Set(bigdata); groups with view permissions: Set(); users  with modify permissions: Set(bigdata); groups with modify permissions: Set()
17/05/16 16:21:29 INFO ExecutorRunner: Launch command: "/usr/lib/jvm/java-8-openjdk-amd64/jre/bin/java" "-cp" "/home/bigdata/spark-2.1.0-bin-hadoop2.7/conf/:/home/bigdata/spark-2.1.0-bin-hadoop2.7/jars/*" "-Xmx1024M" "-Dspark.driver.port=38405" "org.apache.spark.executor.CoarseGrainedExecutorBackend" "--driver-url" "spark://CoarseGrainedScheduler@10.0.2.15:38405" "--executor-id" "0" "--hostname" "10.0.2.15" "--cores" "2" "--app-id" "app-20170516162129-0000" "--worker-url" "spark://Worker@10.0.2.15:34052"
17/05/16 16:26:09 INFO Worker: Executor app-20170516162129-0000/0 finished with state EXITED message Command exited with code 0 exitStatus 0
17/05/16 16:26:09 INFO Worker: Asked to kill unknown executor app-20170516162129-0000/0
17/05/16 16:26:09 INFO Worker: Cleaning up local directories for application app-20170516162129-0000
17/05/16 16:26:09 INFO ExternalShuffleBlockResolver: Application app-20170516162129-0000 removed, cleanupLocalDirs = true
17/05/17 07:40:01 INFO Worker: Asked to launch executor app-20170517074001-0001/0 for programa
17/05/17 07:40:01 INFO SecurityManager: Changing view acls to: bigdata
17/05/17 07:40:01 INFO SecurityManager: Changing modify acls to: bigdata
17/05/17 07:40:01 INFO SecurityManager: Changing view acls groups to: 
17/05/17 07:40:01 INFO SecurityManager: Changing modify acls groups to: 
17/05/17 07:40:01 INFO SecurityManager: SecurityManager: authentication disabled; ui acls disabled; users  with view permissions: Set(bigdata); groups with view permissions: Set(); users  with modify permissions: Set(bigdata); groups with modify permissions: Set()
17/05/17 07:40:01 INFO ExecutorRunner: Launch command: "/usr/lib/jvm/java-8-openjdk-amd64/jre/bin/java" "-cp" "/home/bigdata/spark-2.1.0-bin-hadoop2.7/conf/:/home/bigdata/spark-2.1.0-bin-hadoop2.7/jars/*" "-Xmx1024M" "-Dspark.driver.port=43923" "org.apache.spark.executor.CoarseGrainedExecutorBackend" "--driver-url" "spark://CoarseGrainedScheduler@10.0.2.15:43923" "--executor-id" "0" "--hostname" "10.0.2.15" "--cores" "2" "--app-id" "app-20170517074001-0001" "--worker-url" "spark://Worker@10.0.2.15:34052"
17/05/17 07:40:03 INFO Worker: Asked to kill executor app-20170517074001-0001/0
17/05/17 07:40:03 INFO ExecutorRunner: Runner thread for executor app-20170517074001-0001/0 interrupted
17/05/17 07:40:03 INFO ExecutorRunner: Killing process!
17/05/17 07:40:03 INFO Worker: Executor app-20170517074001-0001/0 finished with state KILLED exitStatus 143
17/05/17 07:40:03 INFO Worker: Cleaning up local directories for application app-20170517074001-0001
17/05/17 07:40:03 INFO ExternalShuffleBlockResolver: Application app-20170517074001-0001 removed, cleanupLocalDirs = true
17/05/17 07:43:48 INFO Worker: Asked to launch executor app-20170517074348-0002/0 for programa
17/05/17 07:43:48 INFO SecurityManager: Changing view acls to: bigdata
17/05/17 07:43:48 INFO SecurityManager: Changing modify acls to: bigdata
17/05/17 07:43:48 INFO SecurityManager: Changing view acls groups to: 
17/05/17 07:43:48 INFO SecurityManager: Changing modify acls groups to: 
17/05/17 07:43:48 INFO SecurityManager: SecurityManager: authentication disabled; ui acls disabled; users  with view permissions: Set(bigdata); groups with view permissions: Set(); users  with modify permissions: Set(bigdata); groups with modify permissions: Set()
17/05/17 07:43:48 INFO ExecutorRunner: Launch command: "/usr/lib/jvm/java-8-openjdk-amd64/jre/bin/java" "-cp" "/home/bigdata/spark-2.1.0-bin-hadoop2.7/conf/:/home/bigdata/spark-2.1.0-bin-hadoop2.7/jars/*" "-Xmx1024M" "-Dspark.driver.port=34986" "org.apache.spark.executor.CoarseGrainedExecutorBackend" "--driver-url" "spark://CoarseGrainedScheduler@10.0.2.15:34986" "--executor-id" "0" "--hostname" "10.0.2.15" "--cores" "2" "--app-id" "app-20170517074348-0002" "--worker-url" "spark://Worker@10.0.2.15:34052"
17/05/17 07:43:50 INFO Worker: Asked to kill executor app-20170517074348-0002/0
17/05/17 07:43:50 INFO ExecutorRunner: Runner thread for executor app-20170517074348-0002/0 interrupted
17/05/17 07:43:50 INFO ExecutorRunner: Killing process!
17/05/17 07:43:50 INFO Worker: Executor app-20170517074348-0002/0 finished with state KILLED exitStatus 143
17/05/17 07:43:50 INFO Worker: Cleaning up local directories for application app-20170517074348-0002
17/05/17 07:43:50 INFO ExternalShuffleBlockResolver: Application app-20170517074348-0002 removed, cleanupLocalDirs = true
17/05/17 07:45:42 INFO Worker: Asked to launch executor app-20170517074542-0003/0 for programa
17/05/17 07:45:42 INFO SecurityManager: Changing view acls to: bigdata
17/05/17 07:45:42 INFO SecurityManager: Changing modify acls to: bigdata
17/05/17 07:45:42 INFO SecurityManager: Changing view acls groups to: 
17/05/17 07:45:42 INFO SecurityManager: Changing modify acls groups to: 
17/05/17 07:45:42 INFO SecurityManager: SecurityManager: authentication disabled; ui acls disabled; users  with view permissions: Set(bigdata); groups with view permissions: Set(); users  with modify permissions: Set(bigdata); groups with modify permissions: Set()
17/05/17 07:45:42 INFO ExecutorRunner: Launch command: "/usr/lib/jvm/java-8-openjdk-amd64/jre/bin/java" "-cp" "/home/bigdata/spark-2.1.0-bin-hadoop2.7/conf/:/home/bigdata/spark-2.1.0-bin-hadoop2.7/jars/*" "-Xmx1024M" "-Dspark.driver.port=40465" "org.apache.spark.executor.CoarseGrainedExecutorBackend" "--driver-url" "spark://CoarseGrainedScheduler@10.0.2.15:40465" "--executor-id" "0" "--hostname" "10.0.2.15" "--cores" "2" "--app-id" "app-20170517074542-0003" "--worker-url" "spark://Worker@10.0.2.15:34052"
17/05/17 07:45:44 INFO Worker: Asked to kill executor app-20170517074542-0003/0
17/05/17 07:45:44 INFO ExecutorRunner: Runner thread for executor app-20170517074542-0003/0 interrupted
17/05/17 07:45:44 INFO ExecutorRunner: Killing process!
17/05/17 07:45:44 INFO Worker: Executor app-20170517074542-0003/0 finished with state KILLED exitStatus 143
17/05/17 07:45:44 INFO Worker: Cleaning up local directories for application app-20170517074542-0003
17/05/17 07:45:44 INFO ExternalShuffleBlockResolver: Application app-20170517074542-0003 removed, cleanupLocalDirs = true
17/05/17 07:47:19 INFO Worker: Asked to launch executor app-20170517074719-0004/0 for programa
17/05/17 07:47:19 INFO SecurityManager: Changing view acls to: bigdata
17/05/17 07:47:19 INFO SecurityManager: Changing modify acls to: bigdata
17/05/17 07:47:19 INFO SecurityManager: Changing view acls groups to: 
17/05/17 07:47:19 INFO SecurityManager: Changing modify acls groups to: 
17/05/17 07:47:19 INFO SecurityManager: SecurityManager: authentication disabled; ui acls disabled; users  with view permissions: Set(bigdata); groups with view permissions: Set(); users  with modify permissions: Set(bigdata); groups with modify permissions: Set()
17/05/17 07:47:19 INFO ExecutorRunner: Launch command: "/usr/lib/jvm/java-8-openjdk-amd64/jre/bin/java" "-cp" "/home/bigdata/spark-2.1.0-bin-hadoop2.7/conf/:/home/bigdata/spark-2.1.0-bin-hadoop2.7/jars/*" "-Xmx1024M" "-Dspark.driver.port=32885" "org.apache.spark.executor.CoarseGrainedExecutorBackend" "--driver-url" "spark://CoarseGrainedScheduler@10.0.2.15:32885" "--executor-id" "0" "--hostname" "10.0.2.15" "--cores" "2" "--app-id" "app-20170517074719-0004" "--worker-url" "spark://Worker@10.0.2.15:34052"
17/05/17 07:47:21 INFO Worker: Asked to kill executor app-20170517074719-0004/0
17/05/17 07:47:21 INFO ExecutorRunner: Runner thread for executor app-20170517074719-0004/0 interrupted
17/05/17 07:47:21 INFO ExecutorRunner: Killing process!
17/05/17 07:47:21 INFO Worker: Executor app-20170517074719-0004/0 finished with state KILLED exitStatus 143
17/05/17 07:47:21 INFO Worker: Cleaning up local directories for application app-20170517074719-0004
17/05/17 07:47:21 INFO ExternalShuffleBlockResolver: Application app-20170517074719-0004 removed, cleanupLocalDirs = true
17/05/17 07:48:37 INFO Worker: Asked to launch executor app-20170517074837-0005/0 for programa
17/05/17 07:48:37 INFO SecurityManager: Changing view acls to: bigdata
17/05/17 07:48:37 INFO SecurityManager: Changing modify acls to: bigdata
17/05/17 07:48:37 INFO SecurityManager: Changing view acls groups to: 
17/05/17 07:48:37 INFO SecurityManager: Changing modify acls groups to: 
17/05/17 07:48:37 INFO SecurityManager: SecurityManager: authentication disabled; ui acls disabled; users  with view permissions: Set(bigdata); groups with view permissions: Set(); users  with modify permissions: Set(bigdata); groups with modify permissions: Set()
17/05/17 07:48:37 INFO ExecutorRunner: Launch command: "/usr/lib/jvm/java-8-openjdk-amd64/jre/bin/java" "-cp" "/home/bigdata/spark-2.1.0-bin-hadoop2.7/conf/:/home/bigdata/spark-2.1.0-bin-hadoop2.7/jars/*" "-Xmx1024M" "-Dspark.driver.port=44115" "org.apache.spark.executor.CoarseGrainedExecutorBackend" "--driver-url" "spark://CoarseGrainedScheduler@10.0.2.15:44115" "--executor-id" "0" "--hostname" "10.0.2.15" "--cores" "2" "--app-id" "app-20170517074837-0005" "--worker-url" "spark://Worker@10.0.2.15:34052"
17/05/17 07:48:46 INFO Worker: Executor app-20170517074837-0005/0 finished with state EXITED message Command exited with code 0 exitStatus 0
17/05/17 07:48:46 INFO Worker: Asked to kill unknown executor app-20170517074837-0005/0
17/05/17 07:48:46 INFO Worker: Cleaning up local directories for application app-20170517074837-0005
17/05/17 07:48:46 INFO ExternalShuffleBlockResolver: Application app-20170517074837-0005 removed, cleanupLocalDirs = true
17/05/17 07:50:08 INFO Worker: Asked to launch executor app-20170517075008-0006/0 for programa
17/05/17 07:50:08 INFO SecurityManager: Changing view acls to: bigdata
17/05/17 07:50:08 INFO SecurityManager: Changing modify acls to: bigdata
17/05/17 07:50:08 INFO SecurityManager: Changing view acls groups to: 
17/05/17 07:50:08 INFO SecurityManager: Changing modify acls groups to: 
17/05/17 07:50:08 INFO SecurityManager: SecurityManager: authentication disabled; ui acls disabled; users  with view permissions: Set(bigdata); groups with view permissions: Set(); users  with modify permissions: Set(bigdata); groups with modify permissions: Set()
17/05/17 07:50:08 INFO ExecutorRunner: Launch command: "/usr/lib/jvm/java-8-openjdk-amd64/jre/bin/java" "-cp" "/home/bigdata/spark-2.1.0-bin-hadoop2.7/conf/:/home/bigdata/spark-2.1.0-bin-hadoop2.7/jars/*" "-Xmx1024M" "-Dspark.driver.port=37959" "org.apache.spark.executor.CoarseGrainedExecutorBackend" "--driver-url" "spark://CoarseGrainedScheduler@10.0.2.15:37959" "--executor-id" "0" "--hostname" "10.0.2.15" "--cores" "2" "--app-id" "app-20170517075008-0006" "--worker-url" "spark://Worker@10.0.2.15:34052"
17/05/17 07:50:16 INFO Worker: Asked to kill executor app-20170517075008-0006/0
17/05/17 07:50:16 INFO ExecutorRunner: Runner thread for executor app-20170517075008-0006/0 interrupted
17/05/17 07:50:16 INFO ExecutorRunner: Killing process!
17/05/17 07:50:16 INFO Worker: Executor app-20170517075008-0006/0 finished with state KILLED exitStatus 0
17/05/17 07:50:16 INFO Worker: Cleaning up local directories for application app-20170517075008-0006
17/05/17 07:50:16 INFO ExternalShuffleBlockResolver: Application app-20170517075008-0006 removed, cleanupLocalDirs = true
17/05/17 08:53:08 INFO Worker: Asked to launch driver driver-20170517085308-0000
17/05/17 08:53:08 INFO DriverRunner: Killing driver process!
17/05/17 08:53:08 WARN Worker: Driver driver-20170517085308-0000 failed with unrecoverable exception: java.net.URISyntaxException: Illegal character in path at index 23: file:/home/bigdata/Área de Trabalho/bigdataufrj/target/scala-2.11/programa_2.11-1.0.jar
17/05/17 08:53:43 INFO Worker: Asked to launch driver driver-20170517085343-0001
17/05/17 08:53:43 INFO DriverRunner: Killing driver process!
17/05/17 08:53:43 WARN Worker: Driver driver-20170517085343-0001 failed with unrecoverable exception: java.net.URISyntaxException: Illegal character in path at index 23: file:/home/bigdata/Área de Trabalho/bigdataufrj/target/scala-2.11/programa_2.11-1.0.jar
17/05/20 21:12:52 INFO Worker: Asked to launch executor app-20170520211252-0007/0 for programa
17/05/20 21:12:52 INFO SecurityManager: Changing view acls to: bigdata
17/05/20 21:12:52 INFO SecurityManager: Changing modify acls to: bigdata
17/05/20 21:12:52 INFO SecurityManager: Changing view acls groups to: 
17/05/20 21:12:52 INFO SecurityManager: Changing modify acls groups to: 
17/05/20 21:12:52 INFO SecurityManager: SecurityManager: authentication disabled; ui acls disabled; users  with view permissions: Set(bigdata); groups with view permissions: Set(); users  with modify permissions: Set(bigdata); groups with modify permissions: Set()
17/05/20 21:12:52 INFO ExecutorRunner: Launch command: "/usr/lib/jvm/java-8-openjdk-amd64/jre/bin/java" "-cp" "/home/bigdata/spark-2.1.0-bin-hadoop2.7/conf/:/home/bigdata/spark-2.1.0-bin-hadoop2.7/jars/*" "-Xmx1024M" "-Dspark.driver.port=40627" "org.apache.spark.executor.CoarseGrainedExecutorBackend" "--driver-url" "spark://CoarseGrainedScheduler@10.0.2.15:40627" "--executor-id" "0" "--hostname" "10.0.2.15" "--cores" "2" "--app-id" "app-20170520211252-0007" "--worker-url" "spark://Worker@10.0.2.15:34052"
17/05/20 21:12:54 INFO Worker: Asked to kill executor app-20170520211252-0007/0
17/05/20 21:12:54 INFO ExecutorRunner: Runner thread for executor app-20170520211252-0007/0 interrupted
17/05/20 21:12:54 INFO ExecutorRunner: Killing process!
17/05/20 21:12:54 INFO Worker: Executor app-20170520211252-0007/0 finished with state KILLED exitStatus 143
17/05/20 21:12:54 INFO Worker: Cleaning up local directories for application app-20170520211252-0007
17/05/20 21:12:54 INFO ExternalShuffleBlockResolver: Application app-20170520211252-0007 removed, cleanupLocalDirs = true
17/05/20 21:13:41 INFO Worker: Asked to launch executor app-20170520211341-0008/0 for programa
17/05/20 21:13:41 INFO SecurityManager: Changing view acls to: bigdata
17/05/20 21:13:41 INFO SecurityManager: Changing modify acls to: bigdata
17/05/20 21:13:41 INFO SecurityManager: Changing view acls groups to: 
17/05/20 21:13:41 INFO SecurityManager: Changing modify acls groups to: 
17/05/20 21:13:41 INFO SecurityManager: SecurityManager: authentication disabled; ui acls disabled; users  with view permissions: Set(bigdata); groups with view permissions: Set(); users  with modify permissions: Set(bigdata); groups with modify permissions: Set()
17/05/20 21:13:41 INFO ExecutorRunner: Launch command: "/usr/lib/jvm/java-8-openjdk-amd64/jre/bin/java" "-cp" "/home/bigdata/spark-2.1.0-bin-hadoop2.7/conf/:/home/bigdata/spark-2.1.0-bin-hadoop2.7/jars/*" "-Xmx1024M" "-Dspark.driver.port=41578" "org.apache.spark.executor.CoarseGrainedExecutorBackend" "--driver-url" "spark://CoarseGrainedScheduler@10.0.2.15:41578" "--executor-id" "0" "--hostname" "10.0.2.15" "--cores" "2" "--app-id" "app-20170520211341-0008" "--worker-url" "spark://Worker@10.0.2.15:34052"
17/05/20 21:13:43 INFO Worker: Asked to kill executor app-20170520211341-0008/0
17/05/20 21:13:43 INFO ExecutorRunner: Runner thread for executor app-20170520211341-0008/0 interrupted
17/05/20 21:13:43 INFO ExecutorRunner: Killing process!
17/05/20 21:13:43 INFO Worker: Executor app-20170520211341-0008/0 finished with state KILLED exitStatus 143
17/05/20 21:13:43 INFO Worker: Cleaning up local directories for application app-20170520211341-0008
17/05/20 21:13:43 INFO ExternalShuffleBlockResolver: Application app-20170520211341-0008 removed, cleanupLocalDirs = true
17/05/20 21:16:02 INFO Worker: Asked to launch executor app-20170520211602-0009/0 for programa
17/05/20 21:16:02 INFO SecurityManager: Changing view acls to: bigdata
17/05/20 21:16:02 INFO SecurityManager: Changing modify acls to: bigdata
17/05/20 21:16:02 INFO SecurityManager: Changing view acls groups to: 
17/05/20 21:16:02 INFO SecurityManager: Changing modify acls groups to: 
17/05/20 21:16:02 INFO SecurityManager: SecurityManager: authentication disabled; ui acls disabled; users  with view permissions: Set(bigdata); groups with view permissions: Set(); users  with modify permissions: Set(bigdata); groups with modify permissions: Set()
17/05/20 21:16:02 INFO ExecutorRunner: Launch command: "/usr/lib/jvm/java-8-openjdk-amd64/jre/bin/java" "-cp" "/home/bigdata/spark-2.1.0-bin-hadoop2.7/conf/:/home/bigdata/spark-2.1.0-bin-hadoop2.7/jars/*" "-Xmx1024M" "-Dspark.driver.port=35914" "org.apache.spark.executor.CoarseGrainedExecutorBackend" "--driver-url" "spark://CoarseGrainedScheduler@10.0.2.15:35914" "--executor-id" "0" "--hostname" "10.0.2.15" "--cores" "2" "--app-id" "app-20170520211602-0009" "--worker-url" "spark://Worker@10.0.2.15:34052"
17/05/20 21:16:05 INFO Worker: Asked to kill executor app-20170520211602-0009/0
17/05/20 21:16:05 INFO ExecutorRunner: Runner thread for executor app-20170520211602-0009/0 interrupted
17/05/20 21:16:05 INFO ExecutorRunner: Killing process!
17/05/20 21:16:05 INFO Worker: Executor app-20170520211602-0009/0 finished with state KILLED exitStatus 143
17/05/20 21:16:05 INFO Worker: Cleaning up local directories for application app-20170520211602-0009
17/05/20 21:16:05 INFO ExternalShuffleBlockResolver: Application app-20170520211602-0009 removed, cleanupLocalDirs = true
17/05/20 21:17:28 INFO Worker: Asked to launch executor app-20170520211728-0010/0 for programa
17/05/20 21:17:28 INFO SecurityManager: Changing view acls to: bigdata
17/05/20 21:17:28 INFO SecurityManager: Changing modify acls to: bigdata
17/05/20 21:17:28 INFO SecurityManager: Changing view acls groups to: 
17/05/20 21:17:28 INFO SecurityManager: Changing modify acls groups to: 
17/05/20 21:17:28 INFO SecurityManager: SecurityManager: authentication disabled; ui acls disabled; users  with view permissions: Set(bigdata); groups with view permissions: Set(); users  with modify permissions: Set(bigdata); groups with modify permissions: Set()
17/05/20 21:17:28 INFO ExecutorRunner: Launch command: "/usr/lib/jvm/java-8-openjdk-amd64/jre/bin/java" "-cp" "/home/bigdata/spark-2.1.0-bin-hadoop2.7/conf/:/home/bigdata/spark-2.1.0-bin-hadoop2.7/jars/*" "-Xmx1024M" "-Dspark.driver.port=35583" "org.apache.spark.executor.CoarseGrainedExecutorBackend" "--driver-url" "spark://CoarseGrainedScheduler@10.0.2.15:35583" "--executor-id" "0" "--hostname" "10.0.2.15" "--cores" "2" "--app-id" "app-20170520211728-0010" "--worker-url" "spark://Worker@10.0.2.15:34052"
17/05/20 21:17:30 INFO Worker: Asked to kill executor app-20170520211728-0010/0
17/05/20 21:17:30 INFO ExecutorRunner: Runner thread for executor app-20170520211728-0010/0 interrupted
17/05/20 21:17:30 INFO ExecutorRunner: Killing process!
17/05/20 21:17:30 INFO Worker: Executor app-20170520211728-0010/0 finished with state KILLED exitStatus 143
17/05/20 21:17:30 INFO Worker: Cleaning up local directories for application app-20170520211728-0010
17/05/20 21:17:30 INFO ExternalShuffleBlockResolver: Application app-20170520211728-0010 removed, cleanupLocalDirs = true
17/05/20 21:19:02 INFO Worker: Asked to launch executor app-20170520211902-0011/0 for programa
17/05/20 21:19:02 INFO SecurityManager: Changing view acls to: bigdata
17/05/20 21:19:02 INFO SecurityManager: Changing modify acls to: bigdata
17/05/20 21:19:02 INFO SecurityManager: Changing view acls groups to: 
17/05/20 21:19:02 INFO SecurityManager: Changing modify acls groups to: 
17/05/20 21:19:02 INFO SecurityManager: SecurityManager: authentication disabled; ui acls disabled; users  with view permissions: Set(bigdata); groups with view permissions: Set(); users  with modify permissions: Set(bigdata); groups with modify permissions: Set()
17/05/20 21:19:02 INFO ExecutorRunner: Launch command: "/usr/lib/jvm/java-8-openjdk-amd64/jre/bin/java" "-cp" "/home/bigdata/spark-2.1.0-bin-hadoop2.7/conf/:/home/bigdata/spark-2.1.0-bin-hadoop2.7/jars/*" "-Xmx1024M" "-Dspark.driver.port=46040" "org.apache.spark.executor.CoarseGrainedExecutorBackend" "--driver-url" "spark://CoarseGrainedScheduler@10.0.2.15:46040" "--executor-id" "0" "--hostname" "10.0.2.15" "--cores" "2" "--app-id" "app-20170520211902-0011" "--worker-url" "spark://Worker@10.0.2.15:34052"
17/05/20 21:19:05 INFO Worker: Asked to kill executor app-20170520211902-0011/0
17/05/20 21:19:05 INFO ExecutorRunner: Runner thread for executor app-20170520211902-0011/0 interrupted
17/05/20 21:19:05 INFO ExecutorRunner: Killing process!
17/05/20 21:19:05 INFO Worker: Executor app-20170520211902-0011/0 finished with state KILLED exitStatus 143
17/05/20 21:19:05 INFO Worker: Cleaning up local directories for application app-20170520211902-0011
17/05/20 21:19:05 INFO ExternalShuffleBlockResolver: Application app-20170520211902-0011 removed, cleanupLocalDirs = true
17/05/20 21:21:56 INFO Worker: Asked to launch executor app-20170520212156-0012/0 for programa
17/05/20 21:21:56 INFO SecurityManager: Changing view acls to: bigdata
17/05/20 21:21:56 INFO SecurityManager: Changing modify acls to: bigdata
17/05/20 21:21:56 INFO SecurityManager: Changing view acls groups to: 
17/05/20 21:21:56 INFO SecurityManager: Changing modify acls groups to: 
17/05/20 21:21:56 INFO SecurityManager: SecurityManager: authentication disabled; ui acls disabled; users  with view permissions: Set(bigdata); groups with view permissions: Set(); users  with modify permissions: Set(bigdata); groups with modify permissions: Set()
17/05/20 21:21:56 INFO ExecutorRunner: Launch command: "/usr/lib/jvm/java-8-openjdk-amd64/jre/bin/java" "-cp" "/home/bigdata/spark-2.1.0-bin-hadoop2.7/conf/:/home/bigdata/spark-2.1.0-bin-hadoop2.7/jars/*" "-Xmx1024M" "-Dspark.driver.port=39069" "org.apache.spark.executor.CoarseGrainedExecutorBackend" "--driver-url" "spark://CoarseGrainedScheduler@10.0.2.15:39069" "--executor-id" "0" "--hostname" "10.0.2.15" "--cores" "2" "--app-id" "app-20170520212156-0012" "--worker-url" "spark://Worker@10.0.2.15:34052"
17/05/20 21:22:03 INFO Worker: Asked to kill executor app-20170520212156-0012/0
17/05/20 21:22:03 INFO ExecutorRunner: Runner thread for executor app-20170520212156-0012/0 interrupted
17/05/20 21:22:03 INFO ExecutorRunner: Killing process!
17/05/20 21:22:03 INFO Worker: Executor app-20170520212156-0012/0 finished with state KILLED exitStatus 0
17/05/20 21:22:03 INFO Worker: Cleaning up local directories for application app-20170520212156-0012
17/05/20 21:22:03 INFO ExternalShuffleBlockResolver: Application app-20170520212156-0012 removed, cleanupLocalDirs = true
17/05/20 21:23:16 INFO Worker: Asked to launch executor app-20170520212316-0013/0 for programa
17/05/20 21:23:16 INFO SecurityManager: Changing view acls to: bigdata
17/05/20 21:23:16 INFO SecurityManager: Changing modify acls to: bigdata
17/05/20 21:23:16 INFO SecurityManager: Changing view acls groups to: 
17/05/20 21:23:16 INFO SecurityManager: Changing modify acls groups to: 
17/05/20 21:23:16 INFO SecurityManager: SecurityManager: authentication disabled; ui acls disabled; users  with view permissions: Set(bigdata); groups with view permissions: Set(); users  with modify permissions: Set(bigdata); groups with modify permissions: Set()
17/05/20 21:23:16 INFO ExecutorRunner: Launch command: "/usr/lib/jvm/java-8-openjdk-amd64/jre/bin/java" "-cp" "/home/bigdata/spark-2.1.0-bin-hadoop2.7/conf/:/home/bigdata/spark-2.1.0-bin-hadoop2.7/jars/*" "-Xmx1024M" "-Dspark.driver.port=40435" "org.apache.spark.executor.CoarseGrainedExecutorBackend" "--driver-url" "spark://CoarseGrainedScheduler@10.0.2.15:40435" "--executor-id" "0" "--hostname" "10.0.2.15" "--cores" "2" "--app-id" "app-20170520212316-0013" "--worker-url" "spark://Worker@10.0.2.15:34052"
17/05/20 21:23:23 INFO Worker: Executor app-20170520212316-0013/0 finished with state EXITED message Command exited with code 0 exitStatus 0
17/05/20 21:23:23 INFO Worker: Asked to kill unknown executor app-20170520212316-0013/0
17/05/20 21:23:23 INFO Worker: Cleaning up local directories for application app-20170520212316-0013
17/05/20 21:23:23 INFO ExternalShuffleBlockResolver: Application app-20170520212316-0013 removed, cleanupLocalDirs = true
17/05/20 21:25:49 INFO Worker: Asked to launch executor app-20170520212549-0014/0 for programa
17/05/20 21:25:49 INFO SecurityManager: Changing view acls to: bigdata
17/05/20 21:25:49 INFO SecurityManager: Changing modify acls to: bigdata
17/05/20 21:25:49 INFO SecurityManager: Changing view acls groups to: 
17/05/20 21:25:49 INFO SecurityManager: Changing modify acls groups to: 
17/05/20 21:25:49 INFO SecurityManager: SecurityManager: authentication disabled; ui acls disabled; users  with view permissions: Set(bigdata); groups with view permissions: Set(); users  with modify permissions: Set(bigdata); groups with modify permissions: Set()
17/05/20 21:25:49 INFO ExecutorRunner: Launch command: "/usr/lib/jvm/java-8-openjdk-amd64/jre/bin/java" "-cp" "/home/bigdata/spark-2.1.0-bin-hadoop2.7/conf/:/home/bigdata/spark-2.1.0-bin-hadoop2.7/jars/*" "-Xmx1024M" "-Dspark.driver.port=37574" "org.apache.spark.executor.CoarseGrainedExecutorBackend" "--driver-url" "spark://CoarseGrainedScheduler@10.0.2.15:37574" "--executor-id" "0" "--hostname" "10.0.2.15" "--cores" "2" "--app-id" "app-20170520212549-0014" "--worker-url" "spark://Worker@10.0.2.15:34052"
17/05/20 21:25:55 INFO Worker: Asked to kill executor app-20170520212549-0014/0
17/05/20 21:25:55 INFO ExecutorRunner: Runner thread for executor app-20170520212549-0014/0 interrupted
17/05/20 21:25:55 INFO ExecutorRunner: Killing process!
17/05/20 21:25:56 INFO Worker: Executor app-20170520212549-0014/0 finished with state KILLED exitStatus 0
17/05/20 21:25:56 INFO Worker: Cleaning up local directories for application app-20170520212549-0014
17/05/20 21:25:56 INFO ExternalShuffleBlockResolver: Application app-20170520212549-0014 removed, cleanupLocalDirs = true
17/05/20 21:27:22 INFO Worker: Asked to launch executor app-20170520212721-0015/0 for programa
17/05/20 21:27:22 INFO SecurityManager: Changing view acls to: bigdata
17/05/20 21:27:22 INFO SecurityManager: Changing modify acls to: bigdata
17/05/20 21:27:22 INFO SecurityManager: Changing view acls groups to: 
17/05/20 21:27:22 INFO SecurityManager: Changing modify acls groups to: 
17/05/20 21:27:22 INFO SecurityManager: SecurityManager: authentication disabled; ui acls disabled; users  with view permissions: Set(bigdata); groups with view permissions: Set(); users  with modify permissions: Set(bigdata); groups with modify permissions: Set()
17/05/20 21:27:22 INFO ExecutorRunner: Launch command: "/usr/lib/jvm/java-8-openjdk-amd64/jre/bin/java" "-cp" "/home/bigdata/spark-2.1.0-bin-hadoop2.7/conf/:/home/bigdata/spark-2.1.0-bin-hadoop2.7/jars/*" "-Xmx1024M" "-Dspark.driver.port=34911" "org.apache.spark.executor.CoarseGrainedExecutorBackend" "--driver-url" "spark://CoarseGrainedScheduler@10.0.2.15:34911" "--executor-id" "0" "--hostname" "10.0.2.15" "--cores" "2" "--app-id" "app-20170520212721-0015" "--worker-url" "spark://Worker@10.0.2.15:34052"
17/05/20 21:27:30 INFO Worker: Asked to kill executor app-20170520212721-0015/0
17/05/20 21:27:30 INFO Worker: Executor app-20170520212721-0015/0 finished with state EXITED message Command exited with code 0 exitStatus 0
17/05/20 21:27:30 INFO Worker: Cleaning up local directories for application app-20170520212721-0015
17/05/20 21:27:30 INFO ExternalShuffleBlockResolver: Application app-20170520212721-0015 removed, cleanupLocalDirs = true
17/05/20 21:28:29 INFO Worker: Asked to launch executor app-20170520212829-0016/0 for programa
17/05/20 21:28:29 INFO SecurityManager: Changing view acls to: bigdata
17/05/20 21:28:29 INFO SecurityManager: Changing modify acls to: bigdata
17/05/20 21:28:29 INFO SecurityManager: Changing view acls groups to: 
17/05/20 21:28:29 INFO SecurityManager: Changing modify acls groups to: 
17/05/20 21:28:29 INFO SecurityManager: SecurityManager: authentication disabled; ui acls disabled; users  with view permissions: Set(bigdata); groups with view permissions: Set(); users  with modify permissions: Set(bigdata); groups with modify permissions: Set()
17/05/20 21:28:29 INFO ExecutorRunner: Launch command: "/usr/lib/jvm/java-8-openjdk-amd64/jre/bin/java" "-cp" "/home/bigdata/spark-2.1.0-bin-hadoop2.7/conf/:/home/bigdata/spark-2.1.0-bin-hadoop2.7/jars/*" "-Xmx1024M" "-Dspark.driver.port=45302" "org.apache.spark.executor.CoarseGrainedExecutorBackend" "--driver-url" "spark://CoarseGrainedScheduler@10.0.2.15:45302" "--executor-id" "0" "--hostname" "10.0.2.15" "--cores" "2" "--app-id" "app-20170520212829-0016" "--worker-url" "spark://Worker@10.0.2.15:34052"
17/05/20 21:28:35 INFO Worker: Asked to kill executor app-20170520212829-0016/0
17/05/20 21:28:35 INFO ExecutorRunner: Runner thread for executor app-20170520212829-0016/0 interrupted
17/05/20 21:28:35 INFO ExecutorRunner: Killing process!
17/05/20 21:28:35 INFO Worker: Executor app-20170520212829-0016/0 finished with state KILLED exitStatus 143
17/05/20 21:28:35 INFO Worker: Cleaning up local directories for application app-20170520212829-0016
17/05/20 21:28:35 INFO ExternalShuffleBlockResolver: Application app-20170520212829-0016 removed, cleanupLocalDirs = true
17/05/20 21:29:16 INFO Worker: Asked to launch executor app-20170520212916-0017/0 for programa
17/05/20 21:29:16 INFO SecurityManager: Changing view acls to: bigdata
17/05/20 21:29:16 INFO SecurityManager: Changing modify acls to: bigdata
17/05/20 21:29:16 INFO SecurityManager: Changing view acls groups to: 
17/05/20 21:29:16 INFO SecurityManager: Changing modify acls groups to: 
17/05/20 21:29:16 INFO SecurityManager: SecurityManager: authentication disabled; ui acls disabled; users  with view permissions: Set(bigdata); groups with view permissions: Set(); users  with modify permissions: Set(bigdata); groups with modify permissions: Set()
17/05/20 21:29:16 INFO ExecutorRunner: Launch command: "/usr/lib/jvm/java-8-openjdk-amd64/jre/bin/java" "-cp" "/home/bigdata/spark-2.1.0-bin-hadoop2.7/conf/:/home/bigdata/spark-2.1.0-bin-hadoop2.7/jars/*" "-Xmx1024M" "-Dspark.driver.port=42958" "org.apache.spark.executor.CoarseGrainedExecutorBackend" "--driver-url" "spark://CoarseGrainedScheduler@10.0.2.15:42958" "--executor-id" "0" "--hostname" "10.0.2.15" "--cores" "2" "--app-id" "app-20170520212916-0017" "--worker-url" "spark://Worker@10.0.2.15:34052"
17/05/20 21:29:23 INFO Worker: Asked to kill executor app-20170520212916-0017/0
17/05/20 21:29:23 INFO ExecutorRunner: Runner thread for executor app-20170520212916-0017/0 interrupted
17/05/20 21:29:23 INFO ExecutorRunner: Killing process!
17/05/20 21:29:23 INFO Worker: Executor app-20170520212916-0017/0 finished with state KILLED exitStatus 0
17/05/20 21:29:23 INFO Worker: Cleaning up local directories for application app-20170520212916-0017
17/05/20 21:29:23 INFO ExternalShuffleBlockResolver: Application app-20170520212916-0017 removed, cleanupLocalDirs = true
17/05/20 21:30:44 INFO Worker: Asked to launch executor app-20170520213044-0018/0 for programa
17/05/20 21:30:44 INFO SecurityManager: Changing view acls to: bigdata
17/05/20 21:30:44 INFO SecurityManager: Changing modify acls to: bigdata
17/05/20 21:30:44 INFO SecurityManager: Changing view acls groups to: 
17/05/20 21:30:44 INFO SecurityManager: Changing modify acls groups to: 
17/05/20 21:30:44 INFO SecurityManager: SecurityManager: authentication disabled; ui acls disabled; users  with view permissions: Set(bigdata); groups with view permissions: Set(); users  with modify permissions: Set(bigdata); groups with modify permissions: Set()
17/05/20 21:30:44 INFO ExecutorRunner: Launch command: "/usr/lib/jvm/java-8-openjdk-amd64/jre/bin/java" "-cp" "/home/bigdata/spark-2.1.0-bin-hadoop2.7/conf/:/home/bigdata/spark-2.1.0-bin-hadoop2.7/jars/*" "-Xmx1024M" "-Dspark.driver.port=37706" "org.apache.spark.executor.CoarseGrainedExecutorBackend" "--driver-url" "spark://CoarseGrainedScheduler@10.0.2.15:37706" "--executor-id" "0" "--hostname" "10.0.2.15" "--cores" "2" "--app-id" "app-20170520213044-0018" "--worker-url" "spark://Worker@10.0.2.15:34052"
17/05/20 21:30:50 INFO Worker: Asked to kill executor app-20170520213044-0018/0
17/05/20 21:30:50 INFO ExecutorRunner: Runner thread for executor app-20170520213044-0018/0 interrupted
17/05/20 21:30:50 INFO ExecutorRunner: Killing process!
17/05/20 21:30:51 INFO Worker: Executor app-20170520213044-0018/0 finished with state KILLED exitStatus 143
17/05/20 21:30:51 INFO Worker: Cleaning up local directories for application app-20170520213044-0018
17/05/20 21:30:51 INFO ExternalShuffleBlockResolver: Application app-20170520213044-0018 removed, cleanupLocalDirs = true
17/05/20 21:32:44 INFO Worker: Asked to launch executor app-20170520213244-0019/0 for programa
17/05/20 21:32:44 INFO SecurityManager: Changing view acls to: bigdata
17/05/20 21:32:44 INFO SecurityManager: Changing modify acls to: bigdata
17/05/20 21:32:44 INFO SecurityManager: Changing view acls groups to: 
17/05/20 21:32:44 INFO SecurityManager: Changing modify acls groups to: 
17/05/20 21:32:44 INFO SecurityManager: SecurityManager: authentication disabled; ui acls disabled; users  with view permissions: Set(bigdata); groups with view permissions: Set(); users  with modify permissions: Set(bigdata); groups with modify permissions: Set()
17/05/20 21:32:44 INFO ExecutorRunner: Launch command: "/usr/lib/jvm/java-8-openjdk-amd64/jre/bin/java" "-cp" "/home/bigdata/spark-2.1.0-bin-hadoop2.7/conf/:/home/bigdata/spark-2.1.0-bin-hadoop2.7/jars/*" "-Xmx1024M" "-Dspark.driver.port=42391" "org.apache.spark.executor.CoarseGrainedExecutorBackend" "--driver-url" "spark://CoarseGrainedScheduler@10.0.2.15:42391" "--executor-id" "0" "--hostname" "10.0.2.15" "--cores" "2" "--app-id" "app-20170520213244-0019" "--worker-url" "spark://Worker@10.0.2.15:34052"
17/05/20 21:32:52 INFO Worker: Asked to kill executor app-20170520213244-0019/0
17/05/20 21:32:52 INFO ExecutorRunner: Runner thread for executor app-20170520213244-0019/0 interrupted
17/05/20 21:32:52 INFO ExecutorRunner: Killing process!
17/05/20 21:32:53 INFO Worker: Executor app-20170520213244-0019/0 finished with state KILLED exitStatus 143
17/05/20 21:32:53 INFO Worker: Cleaning up local directories for application app-20170520213244-0019
17/05/20 21:32:53 INFO ExternalShuffleBlockResolver: Application app-20170520213244-0019 removed, cleanupLocalDirs = true
17/05/20 21:34:12 INFO Worker: Asked to launch executor app-20170520213412-0020/0 for programa
17/05/20 21:34:12 INFO SecurityManager: Changing view acls to: bigdata
17/05/20 21:34:12 INFO SecurityManager: Changing modify acls to: bigdata
17/05/20 21:34:12 INFO SecurityManager: Changing view acls groups to: 
17/05/20 21:34:12 INFO SecurityManager: Changing modify acls groups to: 
17/05/20 21:34:12 INFO SecurityManager: SecurityManager: authentication disabled; ui acls disabled; users  with view permissions: Set(bigdata); groups with view permissions: Set(); users  with modify permissions: Set(bigdata); groups with modify permissions: Set()
17/05/20 21:34:12 INFO ExecutorRunner: Launch command: "/usr/lib/jvm/java-8-openjdk-amd64/jre/bin/java" "-cp" "/home/bigdata/spark-2.1.0-bin-hadoop2.7/conf/:/home/bigdata/spark-2.1.0-bin-hadoop2.7/jars/*" "-Xmx1024M" "-Dspark.driver.port=41655" "org.apache.spark.executor.CoarseGrainedExecutorBackend" "--driver-url" "spark://CoarseGrainedScheduler@10.0.2.15:41655" "--executor-id" "0" "--hostname" "10.0.2.15" "--cores" "2" "--app-id" "app-20170520213412-0020" "--worker-url" "spark://Worker@10.0.2.15:34052"
17/05/20 21:34:19 INFO Worker: Asked to kill executor app-20170520213412-0020/0
17/05/20 21:34:19 INFO ExecutorRunner: Runner thread for executor app-20170520213412-0020/0 interrupted
17/05/20 21:34:19 INFO ExecutorRunner: Killing process!
17/05/20 21:34:20 INFO Worker: Executor app-20170520213412-0020/0 finished with state KILLED exitStatus 143
17/05/20 21:34:20 INFO Worker: Cleaning up local directories for application app-20170520213412-0020
17/05/20 21:34:20 INFO ExternalShuffleBlockResolver: Application app-20170520213412-0020 removed, cleanupLocalDirs = true
17/05/21 09:36:09 INFO Worker: bigdata-VirtualBox:7077 Disassociated !
17/05/21 09:36:09 ERROR Worker: Connection to master failed! Waiting for master to reconnect...
17/05/21 09:36:09 INFO Worker: Connecting to master bigdata-VirtualBox:7077...
17/05/21 09:36:09 INFO Worker: bigdata-VirtualBox:7077 Disassociated !
17/05/21 09:36:09 ERROR Worker: Connection to master failed! Waiting for master to reconnect...
17/05/21 09:36:09 INFO Worker: Not spawning another attempt to register with the master, since there is an attempt scheduled already.
17/05/21 09:36:09 INFO TransportClientFactory: Found inactive connection to bigdata-VirtualBox/127.0.1.1:7077, creating a new one.
17/05/21 09:36:10 WARN Worker: Failed to connect to master bigdata-VirtualBox:7077
org.apache.spark.SparkException: Exception thrown in awaitResult
	at org.apache.spark.rpc.RpcTimeout$$anonfun$1.applyOrElse(RpcTimeout.scala:77)
	at org.apache.spark.rpc.RpcTimeout$$anonfun$1.applyOrElse(RpcTimeout.scala:75)
	at scala.runtime.AbstractPartialFunction.apply(AbstractPartialFunction.scala:36)
	at org.apache.spark.rpc.RpcTimeout$$anonfun$addMessageIfTimeout$1.applyOrElse(RpcTimeout.scala:59)
	at org.apache.spark.rpc.RpcTimeout$$anonfun$addMessageIfTimeout$1.applyOrElse(RpcTimeout.scala:59)
	at scala.PartialFunction$OrElse.apply(PartialFunction.scala:167)
	at org.apache.spark.rpc.RpcTimeout.awaitResult(RpcTimeout.scala:83)
	at org.apache.spark.rpc.RpcEnv.setupEndpointRefByURI(RpcEnv.scala:100)
	at org.apache.spark.rpc.RpcEnv.setupEndpointRef(RpcEnv.scala:108)
	at org.apache.spark.deploy.worker.Worker$$anonfun$org$apache$spark$deploy$worker$Worker$$tryRegisterAllMasters$1$$anon$1.run(Worker.scala:218)
	at java.util.concurrent.Executors$RunnableAdapter.call(Executors.java:511)
	at java.util.concurrent.FutureTask.run(FutureTask.java:266)
	at java.util.concurrent.ThreadPoolExecutor.runWorker(ThreadPoolExecutor.java:1142)
	at java.util.concurrent.ThreadPoolExecutor$Worker.run(ThreadPoolExecutor.java:617)
	at java.lang.Thread.run(Thread.java:748)
Caused by: java.io.IOException: Failed to connect to bigdata-VirtualBox/127.0.1.1:7077
	at org.apache.spark.network.client.TransportClientFactory.createClient(TransportClientFactory.java:228)
	at org.apache.spark.network.client.TransportClientFactory.createClient(TransportClientFactory.java:179)
	at org.apache.spark.rpc.netty.NettyRpcEnv.createClient(NettyRpcEnv.scala:197)
	at org.apache.spark.rpc.netty.Outbox$$anon$1.call(Outbox.scala:191)
	at org.apache.spark.rpc.netty.Outbox$$anon$1.call(Outbox.scala:187)
	... 4 more
Caused by: io.netty.channel.AbstractChannel$AnnotatedConnectException: Conexão recusada: bigdata-VirtualBox/127.0.1.1:7077
	at sun.nio.ch.SocketChannelImpl.checkConnect(Native Method)
	at sun.nio.ch.SocketChannelImpl.finishConnect(SocketChannelImpl.java:717)
	at io.netty.channel.socket.nio.NioSocketChannel.doFinishConnect(NioSocketChannel.java:257)
	at io.netty.channel.nio.AbstractNioChannel$AbstractNioUnsafe.finishConnect(AbstractNioChannel.java:291)
	at io.netty.channel.nio.NioEventLoop.processSelectedKey(NioEventLoop.java:640)
	at io.netty.channel.nio.NioEventLoop.processSelectedKeysOptimized(NioEventLoop.java:575)
	at io.netty.channel.nio.NioEventLoop.processSelectedKeys(NioEventLoop.java:489)
	at io.netty.channel.nio.NioEventLoop.run(NioEventLoop.java:451)
	at io.netty.util.concurrent.SingleThreadEventExecutor$2.run(SingleThreadEventExecutor.java:140)
	at io.netty.util.concurrent.DefaultThreadFactory$DefaultRunnableDecorator.run(DefaultThreadFactory.java:144)
	... 1 more
17/05/21 09:36:19 INFO Worker: Retrying connection to master (attempt # 1)
17/05/21 09:36:19 INFO Worker: Connecting to master bigdata-VirtualBox:7077...
17/05/21 09:36:19 INFO TransportClientFactory: Found inactive connection to bigdata-VirtualBox/127.0.1.1:7077, creating a new one.
17/05/21 09:36:19 WARN Worker: Failed to connect to master bigdata-VirtualBox:7077
org.apache.spark.SparkException: Exception thrown in awaitResult
	at org.apache.spark.rpc.RpcTimeout$$anonfun$1.applyOrElse(RpcTimeout.scala:77)
	at org.apache.spark.rpc.RpcTimeout$$anonfun$1.applyOrElse(RpcTimeout.scala:75)
	at scala.runtime.AbstractPartialFunction.apply(AbstractPartialFunction.scala:36)
	at org.apache.spark.rpc.RpcTimeout$$anonfun$addMessageIfTimeout$1.applyOrElse(RpcTimeout.scala:59)
	at org.apache.spark.rpc.RpcTimeout$$anonfun$addMessageIfTimeout$1.applyOrElse(RpcTimeout.scala:59)
	at scala.PartialFunction$OrElse.apply(PartialFunction.scala:167)
	at org.apache.spark.rpc.RpcTimeout.awaitResult(RpcTimeout.scala:83)
	at org.apache.spark.rpc.RpcEnv.setupEndpointRefByURI(RpcEnv.scala:100)
	at org.apache.spark.rpc.RpcEnv.setupEndpointRef(RpcEnv.scala:108)
	at org.apache.spark.deploy.worker.Worker$$anonfun$org$apache$spark$deploy$worker$Worker$$reregisterWithMaster$1$$anon$2.run(Worker.scala:274)
	at java.util.concurrent.Executors$RunnableAdapter.call(Executors.java:511)
	at java.util.concurrent.FutureTask.run(FutureTask.java:266)
	at java.util.concurrent.ThreadPoolExecutor.runWorker(ThreadPoolExecutor.java:1142)
	at java.util.concurrent.ThreadPoolExecutor$Worker.run(ThreadPoolExecutor.java:617)
	at java.lang.Thread.run(Thread.java:748)
Caused by: java.io.IOException: Failed to connect to bigdata-VirtualBox/127.0.1.1:7077
	at org.apache.spark.network.client.TransportClientFactory.createClient(TransportClientFactory.java:228)
	at org.apache.spark.network.client.TransportClientFactory.createClient(TransportClientFactory.java:179)
	at org.apache.spark.rpc.netty.NettyRpcEnv.createClient(NettyRpcEnv.scala:197)
	at org.apache.spark.rpc.netty.Outbox$$anon$1.call(Outbox.scala:191)
	at org.apache.spark.rpc.netty.Outbox$$anon$1.call(Outbox.scala:187)
	... 4 more
Caused by: io.netty.channel.AbstractChannel$AnnotatedConnectException: Conexão recusada: bigdata-VirtualBox/127.0.1.1:7077
	at sun.nio.ch.SocketChannelImpl.checkConnect(Native Method)
	at sun.nio.ch.SocketChannelImpl.finishConnect(SocketChannelImpl.java:717)
	at io.netty.channel.socket.nio.NioSocketChannel.doFinishConnect(NioSocketChannel.java:257)
	at io.netty.channel.nio.AbstractNioChannel$AbstractNioUnsafe.finishConnect(AbstractNioChannel.java:291)
	at io.netty.channel.nio.NioEventLoop.processSelectedKey(NioEventLoop.java:640)
	at io.netty.channel.nio.NioEventLoop.processSelectedKeysOptimized(NioEventLoop.java:575)
	at io.netty.channel.nio.NioEventLoop.processSelectedKeys(NioEventLoop.java:489)
	at io.netty.channel.nio.NioEventLoop.run(NioEventLoop.java:451)
	at io.netty.util.concurrent.SingleThreadEventExecutor$2.run(SingleThreadEventExecutor.java:140)
	at io.netty.util.concurrent.DefaultThreadFactory$DefaultRunnableDecorator.run(DefaultThreadFactory.java:144)
	... 1 more
17/05/21 09:36:29 INFO Worker: Retrying connection to master (attempt # 2)
17/05/21 09:36:29 INFO Worker: Connecting to master bigdata-VirtualBox:7077...
17/05/21 09:36:29 INFO TransportClientFactory: Found inactive connection to bigdata-VirtualBox/127.0.1.1:7077, creating a new one.
17/05/21 09:36:29 WARN Worker: Failed to connect to master bigdata-VirtualBox:7077
org.apache.spark.SparkException: Exception thrown in awaitResult
	at org.apache.spark.rpc.RpcTimeout$$anonfun$1.applyOrElse(RpcTimeout.scala:77)
	at org.apache.spark.rpc.RpcTimeout$$anonfun$1.applyOrElse(RpcTimeout.scala:75)
	at scala.runtime.AbstractPartialFunction.apply(AbstractPartialFunction.scala:36)
	at org.apache.spark.rpc.RpcTimeout$$anonfun$addMessageIfTimeout$1.applyOrElse(RpcTimeout.scala:59)
	at org.apache.spark.rpc.RpcTimeout$$anonfun$addMessageIfTimeout$1.applyOrElse(RpcTimeout.scala:59)
	at scala.PartialFunction$OrElse.apply(PartialFunction.scala:167)
	at org.apache.spark.rpc.RpcTimeout.awaitResult(RpcTimeout.scala:83)
	at org.apache.spark.rpc.RpcEnv.setupEndpointRefByURI(RpcEnv.scala:100)
	at org.apache.spark.rpc.RpcEnv.setupEndpointRef(RpcEnv.scala:108)
	at org.apache.spark.deploy.worker.Worker$$anonfun$org$apache$spark$deploy$worker$Worker$$reregisterWithMaster$1$$anon$2.run(Worker.scala:274)
	at java.util.concurrent.Executors$RunnableAdapter.call(Executors.java:511)
	at java.util.concurrent.FutureTask.run(FutureTask.java:266)
	at java.util.concurrent.ThreadPoolExecutor.runWorker(ThreadPoolExecutor.java:1142)
	at java.util.concurrent.ThreadPoolExecutor$Worker.run(ThreadPoolExecutor.java:617)
	at java.lang.Thread.run(Thread.java:748)
Caused by: java.io.IOException: Failed to connect to bigdata-VirtualBox/127.0.1.1:7077
	at org.apache.spark.network.client.TransportClientFactory.createClient(TransportClientFactory.java:228)
	at org.apache.spark.network.client.TransportClientFactory.createClient(TransportClientFactory.java:179)
	at org.apache.spark.rpc.netty.NettyRpcEnv.createClient(NettyRpcEnv.scala:197)
	at org.apache.spark.rpc.netty.Outbox$$anon$1.call(Outbox.scala:191)
	at org.apache.spark.rpc.netty.Outbox$$anon$1.call(Outbox.scala:187)
	... 4 more
Caused by: io.netty.channel.AbstractChannel$AnnotatedConnectException: Conexão recusada: bigdata-VirtualBox/127.0.1.1:7077
	at sun.nio.ch.SocketChannelImpl.checkConnect(Native Method)
	at sun.nio.ch.SocketChannelImpl.finishConnect(SocketChannelImpl.java:717)
	at io.netty.channel.socket.nio.NioSocketChannel.doFinishConnect(NioSocketChannel.java:257)
	at io.netty.channel.nio.AbstractNioChannel$AbstractNioUnsafe.finishConnect(AbstractNioChannel.java:291)
	at io.netty.channel.nio.NioEventLoop.processSelectedKey(NioEventLoop.java:640)
	at io.netty.channel.nio.NioEventLoop.processSelectedKeysOptimized(NioEventLoop.java:575)
	at io.netty.channel.nio.NioEventLoop.processSelectedKeys(NioEventLoop.java:489)
	at io.netty.channel.nio.NioEventLoop.run(NioEventLoop.java:451)
	at io.netty.util.concurrent.SingleThreadEventExecutor$2.run(SingleThreadEventExecutor.java:140)
	at io.netty.util.concurrent.DefaultThreadFactory$DefaultRunnableDecorator.run(DefaultThreadFactory.java:144)
	... 1 more
17/05/21 09:36:39 INFO Worker: Retrying connection to master (attempt # 3)
17/05/21 09:36:39 INFO Worker: Connecting to master bigdata-VirtualBox:7077...
17/05/21 09:36:39 INFO TransportClientFactory: Found inactive connection to bigdata-VirtualBox/127.0.1.1:7077, creating a new one.
17/05/21 09:36:39 WARN Worker: Failed to connect to master bigdata-VirtualBox:7077
org.apache.spark.SparkException: Exception thrown in awaitResult
	at org.apache.spark.rpc.RpcTimeout$$anonfun$1.applyOrElse(RpcTimeout.scala:77)
	at org.apache.spark.rpc.RpcTimeout$$anonfun$1.applyOrElse(RpcTimeout.scala:75)
	at scala.runtime.AbstractPartialFunction.apply(AbstractPartialFunction.scala:36)
	at org.apache.spark.rpc.RpcTimeout$$anonfun$addMessageIfTimeout$1.applyOrElse(RpcTimeout.scala:59)
	at org.apache.spark.rpc.RpcTimeout$$anonfun$addMessageIfTimeout$1.applyOrElse(RpcTimeout.scala:59)
	at scala.PartialFunction$OrElse.apply(PartialFunction.scala:167)
	at org.apache.spark.rpc.RpcTimeout.awaitResult(RpcTimeout.scala:83)
	at org.apache.spark.rpc.RpcEnv.setupEndpointRefByURI(RpcEnv.scala:100)
	at org.apache.spark.rpc.RpcEnv.setupEndpointRef(RpcEnv.scala:108)
	at org.apache.spark.deploy.worker.Worker$$anonfun$org$apache$spark$deploy$worker$Worker$$reregisterWithMaster$1$$anon$2.run(Worker.scala:274)
	at java.util.concurrent.Executors$RunnableAdapter.call(Executors.java:511)
	at java.util.concurrent.FutureTask.run(FutureTask.java:266)
	at java.util.concurrent.ThreadPoolExecutor.runWorker(ThreadPoolExecutor.java:1142)
	at java.util.concurrent.ThreadPoolExecutor$Worker.run(ThreadPoolExecutor.java:617)
	at java.lang.Thread.run(Thread.java:748)
Caused by: java.io.IOException: Failed to connect to bigdata-VirtualBox/127.0.1.1:7077
	at org.apache.spark.network.client.TransportClientFactory.createClient(TransportClientFactory.java:228)
	at org.apache.spark.network.client.TransportClientFactory.createClient(TransportClientFactory.java:179)
	at org.apache.spark.rpc.netty.NettyRpcEnv.createClient(NettyRpcEnv.scala:197)
	at org.apache.spark.rpc.netty.Outbox$$anon$1.call(Outbox.scala:191)
	at org.apache.spark.rpc.netty.Outbox$$anon$1.call(Outbox.scala:187)
	... 4 more
Caused by: io.netty.channel.AbstractChannel$AnnotatedConnectException: Conexão recusada: bigdata-VirtualBox/127.0.1.1:7077
	at sun.nio.ch.SocketChannelImpl.checkConnect(Native Method)
	at sun.nio.ch.SocketChannelImpl.finishConnect(SocketChannelImpl.java:717)
	at io.netty.channel.socket.nio.NioSocketChannel.doFinishConnect(NioSocketChannel.java:257)
	at io.netty.channel.nio.AbstractNioChannel$AbstractNioUnsafe.finishConnect(AbstractNioChannel.java:291)
	at io.netty.channel.nio.NioEventLoop.processSelectedKey(NioEventLoop.java:640)
	at io.netty.channel.nio.NioEventLoop.processSelectedKeysOptimized(NioEventLoop.java:575)
	at io.netty.channel.nio.NioEventLoop.processSelectedKeys(NioEventLoop.java:489)
	at io.netty.channel.nio.NioEventLoop.run(NioEventLoop.java:451)
	at io.netty.util.concurrent.SingleThreadEventExecutor$2.run(SingleThreadEventExecutor.java:140)
	at io.netty.util.concurrent.DefaultThreadFactory$DefaultRunnableDecorator.run(DefaultThreadFactory.java:144)
	... 1 more
17/05/21 09:36:49 INFO Worker: Retrying connection to master (attempt # 4)
17/05/21 09:36:49 INFO Worker: Connecting to master bigdata-VirtualBox:7077...
17/05/21 09:36:49 INFO TransportClientFactory: Found inactive connection to bigdata-VirtualBox/127.0.1.1:7077, creating a new one.
17/05/21 09:36:49 WARN Worker: Failed to connect to master bigdata-VirtualBox:7077
org.apache.spark.SparkException: Exception thrown in awaitResult
	at org.apache.spark.rpc.RpcTimeout$$anonfun$1.applyOrElse(RpcTimeout.scala:77)
	at org.apache.spark.rpc.RpcTimeout$$anonfun$1.applyOrElse(RpcTimeout.scala:75)
	at scala.runtime.AbstractPartialFunction.apply(AbstractPartialFunction.scala:36)
	at org.apache.spark.rpc.RpcTimeout$$anonfun$addMessageIfTimeout$1.applyOrElse(RpcTimeout.scala:59)
	at org.apache.spark.rpc.RpcTimeout$$anonfun$addMessageIfTimeout$1.applyOrElse(RpcTimeout.scala:59)
	at scala.PartialFunction$OrElse.apply(PartialFunction.scala:167)
	at org.apache.spark.rpc.RpcTimeout.awaitResult(RpcTimeout.scala:83)
	at org.apache.spark.rpc.RpcEnv.setupEndpointRefByURI(RpcEnv.scala:100)
	at org.apache.spark.rpc.RpcEnv.setupEndpointRef(RpcEnv.scala:108)
	at org.apache.spark.deploy.worker.Worker$$anonfun$org$apache$spark$deploy$worker$Worker$$reregisterWithMaster$1$$anon$2.run(Worker.scala:274)
	at java.util.concurrent.Executors$RunnableAdapter.call(Executors.java:511)
	at java.util.concurrent.FutureTask.run(FutureTask.java:266)
	at java.util.concurrent.ThreadPoolExecutor.runWorker(ThreadPoolExecutor.java:1142)
	at java.util.concurrent.ThreadPoolExecutor$Worker.run(ThreadPoolExecutor.java:617)
	at java.lang.Thread.run(Thread.java:748)
Caused by: java.io.IOException: Failed to connect to bigdata-VirtualBox/127.0.1.1:7077
	at org.apache.spark.network.client.TransportClientFactory.createClient(TransportClientFactory.java:228)
	at org.apache.spark.network.client.TransportClientFactory.createClient(TransportClientFactory.java:179)
	at org.apache.spark.rpc.netty.NettyRpcEnv.createClient(NettyRpcEnv.scala:197)
	at org.apache.spark.rpc.netty.Outbox$$anon$1.call(Outbox.scala:191)
	at org.apache.spark.rpc.netty.Outbox$$anon$1.call(Outbox.scala:187)
	... 4 more
Caused by: io.netty.channel.AbstractChannel$AnnotatedConnectException: Conexão recusada: bigdata-VirtualBox/127.0.1.1:7077
	at sun.nio.ch.SocketChannelImpl.checkConnect(Native Method)
	at sun.nio.ch.SocketChannelImpl.finishConnect(SocketChannelImpl.java:717)
	at io.netty.channel.socket.nio.NioSocketChannel.doFinishConnect(NioSocketChannel.java:257)
	at io.netty.channel.nio.AbstractNioChannel$AbstractNioUnsafe.finishConnect(AbstractNioChannel.java:291)
	at io.netty.channel.nio.NioEventLoop.processSelectedKey(NioEventLoop.java:640)
	at io.netty.channel.nio.NioEventLoop.processSelectedKeysOptimized(NioEventLoop.java:575)
	at io.netty.channel.nio.NioEventLoop.processSelectedKeys(NioEventLoop.java:489)
	at io.netty.channel.nio.NioEventLoop.run(NioEventLoop.java:451)
	at io.netty.util.concurrent.SingleThreadEventExecutor$2.run(SingleThreadEventExecutor.java:140)
	at io.netty.util.concurrent.DefaultThreadFactory$DefaultRunnableDecorator.run(DefaultThreadFactory.java:144)
	... 1 more
17/05/21 09:36:59 INFO Worker: Retrying connection to master (attempt # 5)
17/05/21 09:36:59 INFO Worker: Connecting to master bigdata-VirtualBox:7077...
17/05/21 09:36:59 INFO TransportClientFactory: Found inactive connection to bigdata-VirtualBox/127.0.1.1:7077, creating a new one.
17/05/21 09:36:59 WARN Worker: Failed to connect to master bigdata-VirtualBox:7077
org.apache.spark.SparkException: Exception thrown in awaitResult
	at org.apache.spark.rpc.RpcTimeout$$anonfun$1.applyOrElse(RpcTimeout.scala:77)
	at org.apache.spark.rpc.RpcTimeout$$anonfun$1.applyOrElse(RpcTimeout.scala:75)
	at scala.runtime.AbstractPartialFunction.apply(AbstractPartialFunction.scala:36)
	at org.apache.spark.rpc.RpcTimeout$$anonfun$addMessageIfTimeout$1.applyOrElse(RpcTimeout.scala:59)
	at org.apache.spark.rpc.RpcTimeout$$anonfun$addMessageIfTimeout$1.applyOrElse(RpcTimeout.scala:59)
	at scala.PartialFunction$OrElse.apply(PartialFunction.scala:167)
	at org.apache.spark.rpc.RpcTimeout.awaitResult(RpcTimeout.scala:83)
	at org.apache.spark.rpc.RpcEnv.setupEndpointRefByURI(RpcEnv.scala:100)
	at org.apache.spark.rpc.RpcEnv.setupEndpointRef(RpcEnv.scala:108)
	at org.apache.spark.deploy.worker.Worker$$anonfun$org$apache$spark$deploy$worker$Worker$$reregisterWithMaster$1$$anon$2.run(Worker.scala:274)
	at java.util.concurrent.Executors$RunnableAdapter.call(Executors.java:511)
	at java.util.concurrent.FutureTask.run(FutureTask.java:266)
	at java.util.concurrent.ThreadPoolExecutor.runWorker(ThreadPoolExecutor.java:1142)
	at java.util.concurrent.ThreadPoolExecutor$Worker.run(ThreadPoolExecutor.java:617)
	at java.lang.Thread.run(Thread.java:748)
Caused by: java.io.IOException: Failed to connect to bigdata-VirtualBox/127.0.1.1:7077
	at org.apache.spark.network.client.TransportClientFactory.createClient(TransportClientFactory.java:228)
	at org.apache.spark.network.client.TransportClientFactory.createClient(TransportClientFactory.java:179)
	at org.apache.spark.rpc.netty.NettyRpcEnv.createClient(NettyRpcEnv.scala:197)
	at org.apache.spark.rpc.netty.Outbox$$anon$1.call(Outbox.scala:191)
	at org.apache.spark.rpc.netty.Outbox$$anon$1.call(Outbox.scala:187)
	... 4 more
Caused by: io.netty.channel.AbstractChannel$AnnotatedConnectException: Conexão recusada: bigdata-VirtualBox/127.0.1.1:7077
	at sun.nio.ch.SocketChannelImpl.checkConnect(Native Method)
	at sun.nio.ch.SocketChannelImpl.finishConnect(SocketChannelImpl.java:717)
	at io.netty.channel.socket.nio.NioSocketChannel.doFinishConnect(NioSocketChannel.java:257)
	at io.netty.channel.nio.AbstractNioChannel$AbstractNioUnsafe.finishConnect(AbstractNioChannel.java:291)
	at io.netty.channel.nio.NioEventLoop.processSelectedKey(NioEventLoop.java:640)
	at io.netty.channel.nio.NioEventLoop.processSelectedKeysOptimized(NioEventLoop.java:575)
	at io.netty.channel.nio.NioEventLoop.processSelectedKeys(NioEventLoop.java:489)
	at io.netty.channel.nio.NioEventLoop.run(NioEventLoop.java:451)
	at io.netty.util.concurrent.SingleThreadEventExecutor$2.run(SingleThreadEventExecutor.java:140)
	at io.netty.util.concurrent.DefaultThreadFactory$DefaultRunnableDecorator.run(DefaultThreadFactory.java:144)
	... 1 more
17/05/21 09:37:09 INFO Worker: Retrying connection to master (attempt # 6)
17/05/21 09:37:09 INFO Worker: Connecting to master bigdata-VirtualBox:7077...
17/05/21 09:37:09 INFO TransportClientFactory: Found inactive connection to bigdata-VirtualBox/127.0.1.1:7077, creating a new one.
17/05/21 09:37:09 WARN Worker: Failed to connect to master bigdata-VirtualBox:7077
org.apache.spark.SparkException: Exception thrown in awaitResult
	at org.apache.spark.rpc.RpcTimeout$$anonfun$1.applyOrElse(RpcTimeout.scala:77)
	at org.apache.spark.rpc.RpcTimeout$$anonfun$1.applyOrElse(RpcTimeout.scala:75)
	at scala.runtime.AbstractPartialFunction.apply(AbstractPartialFunction.scala:36)
	at org.apache.spark.rpc.RpcTimeout$$anonfun$addMessageIfTimeout$1.applyOrElse(RpcTimeout.scala:59)
	at org.apache.spark.rpc.RpcTimeout$$anonfun$addMessageIfTimeout$1.applyOrElse(RpcTimeout.scala:59)
	at scala.PartialFunction$OrElse.apply(PartialFunction.scala:167)
	at org.apache.spark.rpc.RpcTimeout.awaitResult(RpcTimeout.scala:83)
	at org.apache.spark.rpc.RpcEnv.setupEndpointRefByURI(RpcEnv.scala:100)
	at org.apache.spark.rpc.RpcEnv.setupEndpointRef(RpcEnv.scala:108)
	at org.apache.spark.deploy.worker.Worker$$anonfun$org$apache$spark$deploy$worker$Worker$$reregisterWithMaster$1$$anon$2.run(Worker.scala:274)
	at java.util.concurrent.Executors$RunnableAdapter.call(Executors.java:511)
	at java.util.concurrent.FutureTask.run(FutureTask.java:266)
	at java.util.concurrent.ThreadPoolExecutor.runWorker(ThreadPoolExecutor.java:1142)
	at java.util.concurrent.ThreadPoolExecutor$Worker.run(ThreadPoolExecutor.java:617)
	at java.lang.Thread.run(Thread.java:748)
Caused by: java.io.IOException: Failed to connect to bigdata-VirtualBox/127.0.1.1:7077
	at org.apache.spark.network.client.TransportClientFactory.createClient(TransportClientFactory.java:228)
	at org.apache.spark.network.client.TransportClientFactory.createClient(TransportClientFactory.java:179)
	at org.apache.spark.rpc.netty.NettyRpcEnv.createClient(NettyRpcEnv.scala:197)
	at org.apache.spark.rpc.netty.Outbox$$anon$1.call(Outbox.scala:191)
	at org.apache.spark.rpc.netty.Outbox$$anon$1.call(Outbox.scala:187)
	... 4 more
Caused by: io.netty.channel.AbstractChannel$AnnotatedConnectException: Conexão recusada: bigdata-VirtualBox/127.0.1.1:7077
	at sun.nio.ch.SocketChannelImpl.checkConnect(Native Method)
	at sun.nio.ch.SocketChannelImpl.finishConnect(SocketChannelImpl.java:717)
	at io.netty.channel.socket.nio.NioSocketChannel.doFinishConnect(NioSocketChannel.java:257)
	at io.netty.channel.nio.AbstractNioChannel$AbstractNioUnsafe.finishConnect(AbstractNioChannel.java:291)
	at io.netty.channel.nio.NioEventLoop.processSelectedKey(NioEventLoop.java:640)
	at io.netty.channel.nio.NioEventLoop.processSelectedKeysOptimized(NioEventLoop.java:575)
	at io.netty.channel.nio.NioEventLoop.processSelectedKeys(NioEventLoop.java:489)
	at io.netty.channel.nio.NioEventLoop.run(NioEventLoop.java:451)
	at io.netty.util.concurrent.SingleThreadEventExecutor$2.run(SingleThreadEventExecutor.java:140)
	at io.netty.util.concurrent.DefaultThreadFactory$DefaultRunnableDecorator.run(DefaultThreadFactory.java:144)
	... 1 more
17/05/21 09:38:09 INFO Worker: Retrying connection to master (attempt # 7)
17/05/21 09:38:09 INFO Worker: Connecting to master bigdata-VirtualBox:7077...
17/05/21 09:38:09 INFO TransportClientFactory: Found inactive connection to bigdata-VirtualBox/127.0.1.1:7077, creating a new one.
17/05/21 09:38:09 WARN Worker: Failed to connect to master bigdata-VirtualBox:7077
org.apache.spark.SparkException: Exception thrown in awaitResult
	at org.apache.spark.rpc.RpcTimeout$$anonfun$1.applyOrElse(RpcTimeout.scala:77)
	at org.apache.spark.rpc.RpcTimeout$$anonfun$1.applyOrElse(RpcTimeout.scala:75)
	at scala.runtime.AbstractPartialFunction.apply(AbstractPartialFunction.scala:36)
	at org.apache.spark.rpc.RpcTimeout$$anonfun$addMessageIfTimeout$1.applyOrElse(RpcTimeout.scala:59)
	at org.apache.spark.rpc.RpcTimeout$$anonfun$addMessageIfTimeout$1.applyOrElse(RpcTimeout.scala:59)
	at scala.PartialFunction$OrElse.apply(PartialFunction.scala:167)
	at org.apache.spark.rpc.RpcTimeout.awaitResult(RpcTimeout.scala:83)
	at org.apache.spark.rpc.RpcEnv.setupEndpointRefByURI(RpcEnv.scala:100)
	at org.apache.spark.rpc.RpcEnv.setupEndpointRef(RpcEnv.scala:108)
	at org.apache.spark.deploy.worker.Worker$$anonfun$org$apache$spark$deploy$worker$Worker$$reregisterWithMaster$1$$anon$2.run(Worker.scala:274)
	at java.util.concurrent.Executors$RunnableAdapter.call(Executors.java:511)
	at java.util.concurrent.FutureTask.run(FutureTask.java:266)
	at java.util.concurrent.ThreadPoolExecutor.runWorker(ThreadPoolExecutor.java:1142)
	at java.util.concurrent.ThreadPoolExecutor$Worker.run(ThreadPoolExecutor.java:617)
	at java.lang.Thread.run(Thread.java:748)
Caused by: java.io.IOException: Failed to connect to bigdata-VirtualBox/127.0.1.1:7077
	at org.apache.spark.network.client.TransportClientFactory.createClient(TransportClientFactory.java:228)
	at org.apache.spark.network.client.TransportClientFactory.createClient(TransportClientFactory.java:179)
	at org.apache.spark.rpc.netty.NettyRpcEnv.createClient(NettyRpcEnv.scala:197)
	at org.apache.spark.rpc.netty.Outbox$$anon$1.call(Outbox.scala:191)
	at org.apache.spark.rpc.netty.Outbox$$anon$1.call(Outbox.scala:187)
	... 4 more
Caused by: io.netty.channel.AbstractChannel$AnnotatedConnectException: Conexão recusada: bigdata-VirtualBox/127.0.1.1:7077
	at sun.nio.ch.SocketChannelImpl.checkConnect(Native Method)
	at sun.nio.ch.SocketChannelImpl.finishConnect(SocketChannelImpl.java:717)
	at io.netty.channel.socket.nio.NioSocketChannel.doFinishConnect(NioSocketChannel.java:257)
	at io.netty.channel.nio.AbstractNioChannel$AbstractNioUnsafe.finishConnect(AbstractNioChannel.java:291)
	at io.netty.channel.nio.NioEventLoop.processSelectedKey(NioEventLoop.java:640)
	at io.netty.channel.nio.NioEventLoop.processSelectedKeysOptimized(NioEventLoop.java:575)
	at io.netty.channel.nio.NioEventLoop.processSelectedKeys(NioEventLoop.java:489)
	at io.netty.channel.nio.NioEventLoop.run(NioEventLoop.java:451)
	at io.netty.util.concurrent.SingleThreadEventExecutor$2.run(SingleThreadEventExecutor.java:140)
	at io.netty.util.concurrent.DefaultThreadFactory$DefaultRunnableDecorator.run(DefaultThreadFactory.java:144)
	... 1 more
17/05/21 09:39:09 INFO Worker: Retrying connection to master (attempt # 8)
17/05/21 09:39:09 INFO Worker: Connecting to master bigdata-VirtualBox:7077...
17/05/21 09:39:09 INFO TransportClientFactory: Found inactive connection to bigdata-VirtualBox/127.0.1.1:7077, creating a new one.
17/05/21 09:39:09 WARN Worker: Failed to connect to master bigdata-VirtualBox:7077
org.apache.spark.SparkException: Exception thrown in awaitResult
	at org.apache.spark.rpc.RpcTimeout$$anonfun$1.applyOrElse(RpcTimeout.scala:77)
	at org.apache.spark.rpc.RpcTimeout$$anonfun$1.applyOrElse(RpcTimeout.scala:75)
	at scala.runtime.AbstractPartialFunction.apply(AbstractPartialFunction.scala:36)
	at org.apache.spark.rpc.RpcTimeout$$anonfun$addMessageIfTimeout$1.applyOrElse(RpcTimeout.scala:59)
	at org.apache.spark.rpc.RpcTimeout$$anonfun$addMessageIfTimeout$1.applyOrElse(RpcTimeout.scala:59)
	at scala.PartialFunction$OrElse.apply(PartialFunction.scala:167)
	at org.apache.spark.rpc.RpcTimeout.awaitResult(RpcTimeout.scala:83)
	at org.apache.spark.rpc.RpcEnv.setupEndpointRefByURI(RpcEnv.scala:100)
	at org.apache.spark.rpc.RpcEnv.setupEndpointRef(RpcEnv.scala:108)
	at org.apache.spark.deploy.worker.Worker$$anonfun$org$apache$spark$deploy$worker$Worker$$reregisterWithMaster$1$$anon$2.run(Worker.scala:274)
	at java.util.concurrent.Executors$RunnableAdapter.call(Executors.java:511)
	at java.util.concurrent.FutureTask.run(FutureTask.java:266)
	at java.util.concurrent.ThreadPoolExecutor.runWorker(ThreadPoolExecutor.java:1142)
	at java.util.concurrent.ThreadPoolExecutor$Worker.run(ThreadPoolExecutor.java:617)
	at java.lang.Thread.run(Thread.java:748)
Caused by: java.io.IOException: Failed to connect to bigdata-VirtualBox/127.0.1.1:7077
	at org.apache.spark.network.client.TransportClientFactory.createClient(TransportClientFactory.java:228)
	at org.apache.spark.network.client.TransportClientFactory.createClient(TransportClientFactory.java:179)
	at org.apache.spark.rpc.netty.NettyRpcEnv.createClient(NettyRpcEnv.scala:197)
	at org.apache.spark.rpc.netty.Outbox$$anon$1.call(Outbox.scala:191)
	at org.apache.spark.rpc.netty.Outbox$$anon$1.call(Outbox.scala:187)
	... 4 more
Caused by: io.netty.channel.AbstractChannel$AnnotatedConnectException: Conexão recusada: bigdata-VirtualBox/127.0.1.1:7077
	at sun.nio.ch.SocketChannelImpl.checkConnect(Native Method)
	at sun.nio.ch.SocketChannelImpl.finishConnect(SocketChannelImpl.java:717)
	at io.netty.channel.socket.nio.NioSocketChannel.doFinishConnect(NioSocketChannel.java:257)
	at io.netty.channel.nio.AbstractNioChannel$AbstractNioUnsafe.finishConnect(AbstractNioChannel.java:291)
	at io.netty.channel.nio.NioEventLoop.processSelectedKey(NioEventLoop.java:640)
	at io.netty.channel.nio.NioEventLoop.processSelectedKeysOptimized(NioEventLoop.java:575)
	at io.netty.channel.nio.NioEventLoop.processSelectedKeys(NioEventLoop.java:489)
	at io.netty.channel.nio.NioEventLoop.run(NioEventLoop.java:451)
	at io.netty.util.concurrent.SingleThreadEventExecutor$2.run(SingleThreadEventExecutor.java:140)
	at io.netty.util.concurrent.DefaultThreadFactory$DefaultRunnableDecorator.run(DefaultThreadFactory.java:144)
	... 1 more
17/05/21 09:40:09 INFO Worker: Retrying connection to master (attempt # 9)
17/05/21 09:40:09 INFO Worker: Connecting to master bigdata-VirtualBox:7077...
17/05/21 09:40:09 INFO TransportClientFactory: Found inactive connection to bigdata-VirtualBox/127.0.1.1:7077, creating a new one.
17/05/21 09:40:09 WARN Worker: Failed to connect to master bigdata-VirtualBox:7077
org.apache.spark.SparkException: Exception thrown in awaitResult
	at org.apache.spark.rpc.RpcTimeout$$anonfun$1.applyOrElse(RpcTimeout.scala:77)
	at org.apache.spark.rpc.RpcTimeout$$anonfun$1.applyOrElse(RpcTimeout.scala:75)
	at scala.runtime.AbstractPartialFunction.apply(AbstractPartialFunction.scala:36)
	at org.apache.spark.rpc.RpcTimeout$$anonfun$addMessageIfTimeout$1.applyOrElse(RpcTimeout.scala:59)
	at org.apache.spark.rpc.RpcTimeout$$anonfun$addMessageIfTimeout$1.applyOrElse(RpcTimeout.scala:59)
	at scala.PartialFunction$OrElse.apply(PartialFunction.scala:167)
	at org.apache.spark.rpc.RpcTimeout.awaitResult(RpcTimeout.scala:83)
	at org.apache.spark.rpc.RpcEnv.setupEndpointRefByURI(RpcEnv.scala:100)
	at org.apache.spark.rpc.RpcEnv.setupEndpointRef(RpcEnv.scala:108)
	at org.apache.spark.deploy.worker.Worker$$anonfun$org$apache$spark$deploy$worker$Worker$$reregisterWithMaster$1$$anon$2.run(Worker.scala:274)
	at java.util.concurrent.Executors$RunnableAdapter.call(Executors.java:511)
	at java.util.concurrent.FutureTask.run(FutureTask.java:266)
	at java.util.concurrent.ThreadPoolExecutor.runWorker(ThreadPoolExecutor.java:1142)
	at java.util.concurrent.ThreadPoolExecutor$Worker.run(ThreadPoolExecutor.java:617)
	at java.lang.Thread.run(Thread.java:748)
Caused by: java.io.IOException: Failed to connect to bigdata-VirtualBox/127.0.1.1:7077
	at org.apache.spark.network.client.TransportClientFactory.createClient(TransportClientFactory.java:228)
	at org.apache.spark.network.client.TransportClientFactory.createClient(TransportClientFactory.java:179)
	at org.apache.spark.rpc.netty.NettyRpcEnv.createClient(NettyRpcEnv.scala:197)
	at org.apache.spark.rpc.netty.Outbox$$anon$1.call(Outbox.scala:191)
	at org.apache.spark.rpc.netty.Outbox$$anon$1.call(Outbox.scala:187)
	... 4 more
Caused by: io.netty.channel.AbstractChannel$AnnotatedConnectException: Conexão recusada: bigdata-VirtualBox/127.0.1.1:7077
	at sun.nio.ch.SocketChannelImpl.checkConnect(Native Method)
	at sun.nio.ch.SocketChannelImpl.finishConnect(SocketChannelImpl.java:717)
	at io.netty.channel.socket.nio.NioSocketChannel.doFinishConnect(NioSocketChannel.java:257)
	at io.netty.channel.nio.AbstractNioChannel$AbstractNioUnsafe.finishConnect(AbstractNioChannel.java:291)
	at io.netty.channel.nio.NioEventLoop.processSelectedKey(NioEventLoop.java:640)
	at io.netty.channel.nio.NioEventLoop.processSelectedKeysOptimized(NioEventLoop.java:575)
	at io.netty.channel.nio.NioEventLoop.processSelectedKeys(NioEventLoop.java:489)
	at io.netty.channel.nio.NioEventLoop.run(NioEventLoop.java:451)
	at io.netty.util.concurrent.SingleThreadEventExecutor$2.run(SingleThreadEventExecutor.java:140)
	at io.netty.util.concurrent.DefaultThreadFactory$DefaultRunnableDecorator.run(DefaultThreadFactory.java:144)
	... 1 more
17/05/21 09:41:09 INFO Worker: Retrying connection to master (attempt # 10)
17/05/21 09:41:09 INFO Worker: Connecting to master bigdata-VirtualBox:7077...
17/05/21 09:41:09 INFO TransportClientFactory: Found inactive connection to bigdata-VirtualBox/127.0.1.1:7077, creating a new one.
17/05/21 09:41:09 WARN Worker: Failed to connect to master bigdata-VirtualBox:7077
org.apache.spark.SparkException: Exception thrown in awaitResult
	at org.apache.spark.rpc.RpcTimeout$$anonfun$1.applyOrElse(RpcTimeout.scala:77)
	at org.apache.spark.rpc.RpcTimeout$$anonfun$1.applyOrElse(RpcTimeout.scala:75)
	at scala.runtime.AbstractPartialFunction.apply(AbstractPartialFunction.scala:36)
	at org.apache.spark.rpc.RpcTimeout$$anonfun$addMessageIfTimeout$1.applyOrElse(RpcTimeout.scala:59)
	at org.apache.spark.rpc.RpcTimeout$$anonfun$addMessageIfTimeout$1.applyOrElse(RpcTimeout.scala:59)
	at scala.PartialFunction$OrElse.apply(PartialFunction.scala:167)
	at org.apache.spark.rpc.RpcTimeout.awaitResult(RpcTimeout.scala:83)
	at org.apache.spark.rpc.RpcEnv.setupEndpointRefByURI(RpcEnv.scala:100)
	at org.apache.spark.rpc.RpcEnv.setupEndpointRef(RpcEnv.scala:108)
	at org.apache.spark.deploy.worker.Worker$$anonfun$org$apache$spark$deploy$worker$Worker$$reregisterWithMaster$1$$anon$2.run(Worker.scala:274)
	at java.util.concurrent.Executors$RunnableAdapter.call(Executors.java:511)
	at java.util.concurrent.FutureTask.run(FutureTask.java:266)
	at java.util.concurrent.ThreadPoolExecutor.runWorker(ThreadPoolExecutor.java:1142)
	at java.util.concurrent.ThreadPoolExecutor$Worker.run(ThreadPoolExecutor.java:617)
	at java.lang.Thread.run(Thread.java:748)
Caused by: java.io.IOException: Failed to connect to bigdata-VirtualBox/127.0.1.1:7077
	at org.apache.spark.network.client.TransportClientFactory.createClient(TransportClientFactory.java:228)
	at org.apache.spark.network.client.TransportClientFactory.createClient(TransportClientFactory.java:179)
	at org.apache.spark.rpc.netty.NettyRpcEnv.createClient(NettyRpcEnv.scala:197)
	at org.apache.spark.rpc.netty.Outbox$$anon$1.call(Outbox.scala:191)
	at org.apache.spark.rpc.netty.Outbox$$anon$1.call(Outbox.scala:187)
	... 4 more
Caused by: io.netty.channel.AbstractChannel$AnnotatedConnectException: Conexão recusada: bigdata-VirtualBox/127.0.1.1:7077
	at sun.nio.ch.SocketChannelImpl.checkConnect(Native Method)
	at sun.nio.ch.SocketChannelImpl.finishConnect(SocketChannelImpl.java:717)
	at io.netty.channel.socket.nio.NioSocketChannel.doFinishConnect(NioSocketChannel.java:257)
	at io.netty.channel.nio.AbstractNioChannel$AbstractNioUnsafe.finishConnect(AbstractNioChannel.java:291)
	at io.netty.channel.nio.NioEventLoop.processSelectedKey(NioEventLoop.java:640)
	at io.netty.channel.nio.NioEventLoop.processSelectedKeysOptimized(NioEventLoop.java:575)
	at io.netty.channel.nio.NioEventLoop.processSelectedKeys(NioEventLoop.java:489)
	at io.netty.channel.nio.NioEventLoop.run(NioEventLoop.java:451)
	at io.netty.util.concurrent.SingleThreadEventExecutor$2.run(SingleThreadEventExecutor.java:140)
	at io.netty.util.concurrent.DefaultThreadFactory$DefaultRunnableDecorator.run(DefaultThreadFactory.java:144)
	... 1 more
17/05/21 09:42:09 INFO Worker: Retrying connection to master (attempt # 11)
17/05/21 09:42:09 INFO Worker: Connecting to master bigdata-VirtualBox:7077...
17/05/21 09:42:09 INFO TransportClientFactory: Found inactive connection to bigdata-VirtualBox/127.0.1.1:7077, creating a new one.
17/05/21 09:42:09 WARN Worker: Failed to connect to master bigdata-VirtualBox:7077
org.apache.spark.SparkException: Exception thrown in awaitResult
	at org.apache.spark.rpc.RpcTimeout$$anonfun$1.applyOrElse(RpcTimeout.scala:77)
	at org.apache.spark.rpc.RpcTimeout$$anonfun$1.applyOrElse(RpcTimeout.scala:75)
	at scala.runtime.AbstractPartialFunction.apply(AbstractPartialFunction.scala:36)
	at org.apache.spark.rpc.RpcTimeout$$anonfun$addMessageIfTimeout$1.applyOrElse(RpcTimeout.scala:59)
	at org.apache.spark.rpc.RpcTimeout$$anonfun$addMessageIfTimeout$1.applyOrElse(RpcTimeout.scala:59)
	at scala.PartialFunction$OrElse.apply(PartialFunction.scala:167)
	at org.apache.spark.rpc.RpcTimeout.awaitResult(RpcTimeout.scala:83)
	at org.apache.spark.rpc.RpcEnv.setupEndpointRefByURI(RpcEnv.scala:100)
	at org.apache.spark.rpc.RpcEnv.setupEndpointRef(RpcEnv.scala:108)
	at org.apache.spark.deploy.worker.Worker$$anonfun$org$apache$spark$deploy$worker$Worker$$reregisterWithMaster$1$$anon$2.run(Worker.scala:274)
	at java.util.concurrent.Executors$RunnableAdapter.call(Executors.java:511)
	at java.util.concurrent.FutureTask.run(FutureTask.java:266)
	at java.util.concurrent.ThreadPoolExecutor.runWorker(ThreadPoolExecutor.java:1142)
	at java.util.concurrent.ThreadPoolExecutor$Worker.run(ThreadPoolExecutor.java:617)
	at java.lang.Thread.run(Thread.java:748)
Caused by: java.io.IOException: Failed to connect to bigdata-VirtualBox/127.0.1.1:7077
	at org.apache.spark.network.client.TransportClientFactory.createClient(TransportClientFactory.java:228)
	at org.apache.spark.network.client.TransportClientFactory.createClient(TransportClientFactory.java:179)
	at org.apache.spark.rpc.netty.NettyRpcEnv.createClient(NettyRpcEnv.scala:197)
	at org.apache.spark.rpc.netty.Outbox$$anon$1.call(Outbox.scala:191)
	at org.apache.spark.rpc.netty.Outbox$$anon$1.call(Outbox.scala:187)
	... 4 more
Caused by: io.netty.channel.AbstractChannel$AnnotatedConnectException: Conexão recusada: bigdata-VirtualBox/127.0.1.1:7077
	at sun.nio.ch.SocketChannelImpl.checkConnect(Native Method)
	at sun.nio.ch.SocketChannelImpl.finishConnect(SocketChannelImpl.java:717)
	at io.netty.channel.socket.nio.NioSocketChannel.doFinishConnect(NioSocketChannel.java:257)
	at io.netty.channel.nio.AbstractNioChannel$AbstractNioUnsafe.finishConnect(AbstractNioChannel.java:291)
	at io.netty.channel.nio.NioEventLoop.processSelectedKey(NioEventLoop.java:640)
	at io.netty.channel.nio.NioEventLoop.processSelectedKeysOptimized(NioEventLoop.java:575)
	at io.netty.channel.nio.NioEventLoop.processSelectedKeys(NioEventLoop.java:489)
	at io.netty.channel.nio.NioEventLoop.run(NioEventLoop.java:451)
	at io.netty.util.concurrent.SingleThreadEventExecutor$2.run(SingleThreadEventExecutor.java:140)
	at io.netty.util.concurrent.DefaultThreadFactory$DefaultRunnableDecorator.run(DefaultThreadFactory.java:144)
	... 1 more
17/05/21 09:43:09 INFO Worker: Retrying connection to master (attempt # 12)
17/05/21 09:43:09 INFO Worker: Connecting to master bigdata-VirtualBox:7077...
17/05/21 09:43:09 INFO TransportClientFactory: Found inactive connection to bigdata-VirtualBox/127.0.1.1:7077, creating a new one.
17/05/21 09:43:09 WARN Worker: Failed to connect to master bigdata-VirtualBox:7077
org.apache.spark.SparkException: Exception thrown in awaitResult
	at org.apache.spark.rpc.RpcTimeout$$anonfun$1.applyOrElse(RpcTimeout.scala:77)
	at org.apache.spark.rpc.RpcTimeout$$anonfun$1.applyOrElse(RpcTimeout.scala:75)
	at scala.runtime.AbstractPartialFunction.apply(AbstractPartialFunction.scala:36)
	at org.apache.spark.rpc.RpcTimeout$$anonfun$addMessageIfTimeout$1.applyOrElse(RpcTimeout.scala:59)
	at org.apache.spark.rpc.RpcTimeout$$anonfun$addMessageIfTimeout$1.applyOrElse(RpcTimeout.scala:59)
	at scala.PartialFunction$OrElse.apply(PartialFunction.scala:167)
	at org.apache.spark.rpc.RpcTimeout.awaitResult(RpcTimeout.scala:83)
	at org.apache.spark.rpc.RpcEnv.setupEndpointRefByURI(RpcEnv.scala:100)
	at org.apache.spark.rpc.RpcEnv.setupEndpointRef(RpcEnv.scala:108)
	at org.apache.spark.deploy.worker.Worker$$anonfun$org$apache$spark$deploy$worker$Worker$$reregisterWithMaster$1$$anon$2.run(Worker.scala:274)
	at java.util.concurrent.Executors$RunnableAdapter.call(Executors.java:511)
	at java.util.concurrent.FutureTask.run(FutureTask.java:266)
	at java.util.concurrent.ThreadPoolExecutor.runWorker(ThreadPoolExecutor.java:1142)
	at java.util.concurrent.ThreadPoolExecutor$Worker.run(ThreadPoolExecutor.java:617)
	at java.lang.Thread.run(Thread.java:748)
Caused by: java.io.IOException: Failed to connect to bigdata-VirtualBox/127.0.1.1:7077
	at org.apache.spark.network.client.TransportClientFactory.createClient(TransportClientFactory.java:228)
	at org.apache.spark.network.client.TransportClientFactory.createClient(TransportClientFactory.java:179)
	at org.apache.spark.rpc.netty.NettyRpcEnv.createClient(NettyRpcEnv.scala:197)
	at org.apache.spark.rpc.netty.Outbox$$anon$1.call(Outbox.scala:191)
	at org.apache.spark.rpc.netty.Outbox$$anon$1.call(Outbox.scala:187)
	... 4 more
Caused by: io.netty.channel.AbstractChannel$AnnotatedConnectException: Conexão recusada: bigdata-VirtualBox/127.0.1.1:7077
	at sun.nio.ch.SocketChannelImpl.checkConnect(Native Method)
	at sun.nio.ch.SocketChannelImpl.finishConnect(SocketChannelImpl.java:717)
	at io.netty.channel.socket.nio.NioSocketChannel.doFinishConnect(NioSocketChannel.java:257)
	at io.netty.channel.nio.AbstractNioChannel$AbstractNioUnsafe.finishConnect(AbstractNioChannel.java:291)
	at io.netty.channel.nio.NioEventLoop.processSelectedKey(NioEventLoop.java:640)
	at io.netty.channel.nio.NioEventLoop.processSelectedKeysOptimized(NioEventLoop.java:575)
	at io.netty.channel.nio.NioEventLoop.processSelectedKeys(NioEventLoop.java:489)
	at io.netty.channel.nio.NioEventLoop.run(NioEventLoop.java:451)
	at io.netty.util.concurrent.SingleThreadEventExecutor$2.run(SingleThreadEventExecutor.java:140)
	at io.netty.util.concurrent.DefaultThreadFactory$DefaultRunnableDecorator.run(DefaultThreadFactory.java:144)
	... 1 more
17/05/21 09:44:09 INFO Worker: Retrying connection to master (attempt # 13)
17/05/21 09:44:09 INFO Worker: Connecting to master bigdata-VirtualBox:7077...
17/05/21 09:44:09 INFO TransportClientFactory: Found inactive connection to bigdata-VirtualBox/127.0.1.1:7077, creating a new one.
17/05/21 09:44:09 WARN Worker: Failed to connect to master bigdata-VirtualBox:7077
org.apache.spark.SparkException: Exception thrown in awaitResult
	at org.apache.spark.rpc.RpcTimeout$$anonfun$1.applyOrElse(RpcTimeout.scala:77)
	at org.apache.spark.rpc.RpcTimeout$$anonfun$1.applyOrElse(RpcTimeout.scala:75)
	at scala.runtime.AbstractPartialFunction.apply(AbstractPartialFunction.scala:36)
	at org.apache.spark.rpc.RpcTimeout$$anonfun$addMessageIfTimeout$1.applyOrElse(RpcTimeout.scala:59)
	at org.apache.spark.rpc.RpcTimeout$$anonfun$addMessageIfTimeout$1.applyOrElse(RpcTimeout.scala:59)
	at scala.PartialFunction$OrElse.apply(PartialFunction.scala:167)
	at org.apache.spark.rpc.RpcTimeout.awaitResult(RpcTimeout.scala:83)
	at org.apache.spark.rpc.RpcEnv.setupEndpointRefByURI(RpcEnv.scala:100)
	at org.apache.spark.rpc.RpcEnv.setupEndpointRef(RpcEnv.scala:108)
	at org.apache.spark.deploy.worker.Worker$$anonfun$org$apache$spark$deploy$worker$Worker$$reregisterWithMaster$1$$anon$2.run(Worker.scala:274)
	at java.util.concurrent.Executors$RunnableAdapter.call(Executors.java:511)
	at java.util.concurrent.FutureTask.run(FutureTask.java:266)
	at java.util.concurrent.ThreadPoolExecutor.runWorker(ThreadPoolExecutor.java:1142)
	at java.util.concurrent.ThreadPoolExecutor$Worker.run(ThreadPoolExecutor.java:617)
	at java.lang.Thread.run(Thread.java:748)
Caused by: java.io.IOException: Failed to connect to bigdata-VirtualBox/127.0.1.1:7077
	at org.apache.spark.network.client.TransportClientFactory.createClient(TransportClientFactory.java:228)
	at org.apache.spark.network.client.TransportClientFactory.createClient(TransportClientFactory.java:179)
	at org.apache.spark.rpc.netty.NettyRpcEnv.createClient(NettyRpcEnv.scala:197)
	at org.apache.spark.rpc.netty.Outbox$$anon$1.call(Outbox.scala:191)
	at org.apache.spark.rpc.netty.Outbox$$anon$1.call(Outbox.scala:187)
	... 4 more
Caused by: io.netty.channel.AbstractChannel$AnnotatedConnectException: Conexão recusada: bigdata-VirtualBox/127.0.1.1:7077
	at sun.nio.ch.SocketChannelImpl.checkConnect(Native Method)
	at sun.nio.ch.SocketChannelImpl.finishConnect(SocketChannelImpl.java:717)
	at io.netty.channel.socket.nio.NioSocketChannel.doFinishConnect(NioSocketChannel.java:257)
	at io.netty.channel.nio.AbstractNioChannel$AbstractNioUnsafe.finishConnect(AbstractNioChannel.java:291)
	at io.netty.channel.nio.NioEventLoop.processSelectedKey(NioEventLoop.java:640)
	at io.netty.channel.nio.NioEventLoop.processSelectedKeysOptimized(NioEventLoop.java:575)
	at io.netty.channel.nio.NioEventLoop.processSelectedKeys(NioEventLoop.java:489)
	at io.netty.channel.nio.NioEventLoop.run(NioEventLoop.java:451)
	at io.netty.util.concurrent.SingleThreadEventExecutor$2.run(SingleThreadEventExecutor.java:140)
	at io.netty.util.concurrent.DefaultThreadFactory$DefaultRunnableDecorator.run(DefaultThreadFactory.java:144)
	... 1 more
17/05/21 09:45:09 INFO Worker: Retrying connection to master (attempt # 14)
17/05/21 09:45:09 INFO Worker: Connecting to master bigdata-VirtualBox:7077...
17/05/21 09:45:09 INFO TransportClientFactory: Found inactive connection to bigdata-VirtualBox/127.0.1.1:7077, creating a new one.
17/05/21 09:45:09 WARN Worker: Failed to connect to master bigdata-VirtualBox:7077
org.apache.spark.SparkException: Exception thrown in awaitResult
	at org.apache.spark.rpc.RpcTimeout$$anonfun$1.applyOrElse(RpcTimeout.scala:77)
	at org.apache.spark.rpc.RpcTimeout$$anonfun$1.applyOrElse(RpcTimeout.scala:75)
	at scala.runtime.AbstractPartialFunction.apply(AbstractPartialFunction.scala:36)
	at org.apache.spark.rpc.RpcTimeout$$anonfun$addMessageIfTimeout$1.applyOrElse(RpcTimeout.scala:59)
	at org.apache.spark.rpc.RpcTimeout$$anonfun$addMessageIfTimeout$1.applyOrElse(RpcTimeout.scala:59)
	at scala.PartialFunction$OrElse.apply(PartialFunction.scala:167)
	at org.apache.spark.rpc.RpcTimeout.awaitResult(RpcTimeout.scala:83)
	at org.apache.spark.rpc.RpcEnv.setupEndpointRefByURI(RpcEnv.scala:100)
	at org.apache.spark.rpc.RpcEnv.setupEndpointRef(RpcEnv.scala:108)
	at org.apache.spark.deploy.worker.Worker$$anonfun$org$apache$spark$deploy$worker$Worker$$reregisterWithMaster$1$$anon$2.run(Worker.scala:274)
	at java.util.concurrent.Executors$RunnableAdapter.call(Executors.java:511)
	at java.util.concurrent.FutureTask.run(FutureTask.java:266)
	at java.util.concurrent.ThreadPoolExecutor.runWorker(ThreadPoolExecutor.java:1142)
	at java.util.concurrent.ThreadPoolExecutor$Worker.run(ThreadPoolExecutor.java:617)
	at java.lang.Thread.run(Thread.java:748)
Caused by: java.io.IOException: Failed to connect to bigdata-VirtualBox/127.0.1.1:7077
	at org.apache.spark.network.client.TransportClientFactory.createClient(TransportClientFactory.java:228)
	at org.apache.spark.network.client.TransportClientFactory.createClient(TransportClientFactory.java:179)
	at org.apache.spark.rpc.netty.NettyRpcEnv.createClient(NettyRpcEnv.scala:197)
	at org.apache.spark.rpc.netty.Outbox$$anon$1.call(Outbox.scala:191)
	at org.apache.spark.rpc.netty.Outbox$$anon$1.call(Outbox.scala:187)
	... 4 more
Caused by: io.netty.channel.AbstractChannel$AnnotatedConnectException: Conexão recusada: bigdata-VirtualBox/127.0.1.1:7077
	at sun.nio.ch.SocketChannelImpl.checkConnect(Native Method)
	at sun.nio.ch.SocketChannelImpl.finishConnect(SocketChannelImpl.java:717)
	at io.netty.channel.socket.nio.NioSocketChannel.doFinishConnect(NioSocketChannel.java:257)
	at io.netty.channel.nio.AbstractNioChannel$AbstractNioUnsafe.finishConnect(AbstractNioChannel.java:291)
	at io.netty.channel.nio.NioEventLoop.processSelectedKey(NioEventLoop.java:640)
	at io.netty.channel.nio.NioEventLoop.processSelectedKeysOptimized(NioEventLoop.java:575)
	at io.netty.channel.nio.NioEventLoop.processSelectedKeys(NioEventLoop.java:489)
	at io.netty.channel.nio.NioEventLoop.run(NioEventLoop.java:451)
	at io.netty.util.concurrent.SingleThreadEventExecutor$2.run(SingleThreadEventExecutor.java:140)
	at io.netty.util.concurrent.DefaultThreadFactory$DefaultRunnableDecorator.run(DefaultThreadFactory.java:144)
	... 1 more
17/05/21 09:46:09 INFO Worker: Retrying connection to master (attempt # 15)
17/05/21 09:46:09 INFO Worker: Connecting to master bigdata-VirtualBox:7077...
17/05/21 09:46:09 INFO TransportClientFactory: Found inactive connection to bigdata-VirtualBox/127.0.1.1:7077, creating a new one.
17/05/21 09:46:09 WARN Worker: Failed to connect to master bigdata-VirtualBox:7077
org.apache.spark.SparkException: Exception thrown in awaitResult
	at org.apache.spark.rpc.RpcTimeout$$anonfun$1.applyOrElse(RpcTimeout.scala:77)
	at org.apache.spark.rpc.RpcTimeout$$anonfun$1.applyOrElse(RpcTimeout.scala:75)
	at scala.runtime.AbstractPartialFunction.apply(AbstractPartialFunction.scala:36)
	at org.apache.spark.rpc.RpcTimeout$$anonfun$addMessageIfTimeout$1.applyOrElse(RpcTimeout.scala:59)
	at org.apache.spark.rpc.RpcTimeout$$anonfun$addMessageIfTimeout$1.applyOrElse(RpcTimeout.scala:59)
	at scala.PartialFunction$OrElse.apply(PartialFunction.scala:167)
	at org.apache.spark.rpc.RpcTimeout.awaitResult(RpcTimeout.scala:83)
	at org.apache.spark.rpc.RpcEnv.setupEndpointRefByURI(RpcEnv.scala:100)
	at org.apache.spark.rpc.RpcEnv.setupEndpointRef(RpcEnv.scala:108)
	at org.apache.spark.deploy.worker.Worker$$anonfun$org$apache$spark$deploy$worker$Worker$$reregisterWithMaster$1$$anon$2.run(Worker.scala:274)
	at java.util.concurrent.Executors$RunnableAdapter.call(Executors.java:511)
	at java.util.concurrent.FutureTask.run(FutureTask.java:266)
	at java.util.concurrent.ThreadPoolExecutor.runWorker(ThreadPoolExecutor.java:1142)
	at java.util.concurrent.ThreadPoolExecutor$Worker.run(ThreadPoolExecutor.java:617)
	at java.lang.Thread.run(Thread.java:748)
Caused by: java.io.IOException: Failed to connect to bigdata-VirtualBox/127.0.1.1:7077
	at org.apache.spark.network.client.TransportClientFactory.createClient(TransportClientFactory.java:228)
	at org.apache.spark.network.client.TransportClientFactory.createClient(TransportClientFactory.java:179)
	at org.apache.spark.rpc.netty.NettyRpcEnv.createClient(NettyRpcEnv.scala:197)
	at org.apache.spark.rpc.netty.Outbox$$anon$1.call(Outbox.scala:191)
	at org.apache.spark.rpc.netty.Outbox$$anon$1.call(Outbox.scala:187)
	... 4 more
Caused by: io.netty.channel.AbstractChannel$AnnotatedConnectException: Conexão recusada: bigdata-VirtualBox/127.0.1.1:7077
	at sun.nio.ch.SocketChannelImpl.checkConnect(Native Method)
	at sun.nio.ch.SocketChannelImpl.finishConnect(SocketChannelImpl.java:717)
	at io.netty.channel.socket.nio.NioSocketChannel.doFinishConnect(NioSocketChannel.java:257)
	at io.netty.channel.nio.AbstractNioChannel$AbstractNioUnsafe.finishConnect(AbstractNioChannel.java:291)
	at io.netty.channel.nio.NioEventLoop.processSelectedKey(NioEventLoop.java:640)
	at io.netty.channel.nio.NioEventLoop.processSelectedKeysOptimized(NioEventLoop.java:575)
	at io.netty.channel.nio.NioEventLoop.processSelectedKeys(NioEventLoop.java:489)
	at io.netty.channel.nio.NioEventLoop.run(NioEventLoop.java:451)
	at io.netty.util.concurrent.SingleThreadEventExecutor$2.run(SingleThreadEventExecutor.java:140)
	at io.netty.util.concurrent.DefaultThreadFactory$DefaultRunnableDecorator.run(DefaultThreadFactory.java:144)
	... 1 more
17/05/21 09:47:09 INFO Worker: Retrying connection to master (attempt # 16)
17/05/21 09:47:09 INFO Worker: Connecting to master bigdata-VirtualBox:7077...
17/05/21 09:47:09 INFO TransportClientFactory: Found inactive connection to bigdata-VirtualBox/127.0.1.1:7077, creating a new one.
17/05/21 09:47:09 WARN Worker: Failed to connect to master bigdata-VirtualBox:7077
org.apache.spark.SparkException: Exception thrown in awaitResult
	at org.apache.spark.rpc.RpcTimeout$$anonfun$1.applyOrElse(RpcTimeout.scala:77)
	at org.apache.spark.rpc.RpcTimeout$$anonfun$1.applyOrElse(RpcTimeout.scala:75)
	at scala.runtime.AbstractPartialFunction.apply(AbstractPartialFunction.scala:36)
	at org.apache.spark.rpc.RpcTimeout$$anonfun$addMessageIfTimeout$1.applyOrElse(RpcTimeout.scala:59)
	at org.apache.spark.rpc.RpcTimeout$$anonfun$addMessageIfTimeout$1.applyOrElse(RpcTimeout.scala:59)
	at scala.PartialFunction$OrElse.apply(PartialFunction.scala:167)
	at org.apache.spark.rpc.RpcTimeout.awaitResult(RpcTimeout.scala:83)
	at org.apache.spark.rpc.RpcEnv.setupEndpointRefByURI(RpcEnv.scala:100)
	at org.apache.spark.rpc.RpcEnv.setupEndpointRef(RpcEnv.scala:108)
	at org.apache.spark.deploy.worker.Worker$$anonfun$org$apache$spark$deploy$worker$Worker$$reregisterWithMaster$1$$anon$2.run(Worker.scala:274)
	at java.util.concurrent.Executors$RunnableAdapter.call(Executors.java:511)
	at java.util.concurrent.FutureTask.run(FutureTask.java:266)
	at java.util.concurrent.ThreadPoolExecutor.runWorker(ThreadPoolExecutor.java:1142)
	at java.util.concurrent.ThreadPoolExecutor$Worker.run(ThreadPoolExecutor.java:617)
	at java.lang.Thread.run(Thread.java:748)
Caused by: java.io.IOException: Failed to connect to bigdata-VirtualBox/127.0.1.1:7077
	at org.apache.spark.network.client.TransportClientFactory.createClient(TransportClientFactory.java:228)
	at org.apache.spark.network.client.TransportClientFactory.createClient(TransportClientFactory.java:179)
	at org.apache.spark.rpc.netty.NettyRpcEnv.createClient(NettyRpcEnv.scala:197)
	at org.apache.spark.rpc.netty.Outbox$$anon$1.call(Outbox.scala:191)
	at org.apache.spark.rpc.netty.Outbox$$anon$1.call(Outbox.scala:187)
	... 4 more
Caused by: io.netty.channel.AbstractChannel$AnnotatedConnectException: Conexão recusada: bigdata-VirtualBox/127.0.1.1:7077
	at sun.nio.ch.SocketChannelImpl.checkConnect(Native Method)
	at sun.nio.ch.SocketChannelImpl.finishConnect(SocketChannelImpl.java:717)
	at io.netty.channel.socket.nio.NioSocketChannel.doFinishConnect(NioSocketChannel.java:257)
	at io.netty.channel.nio.AbstractNioChannel$AbstractNioUnsafe.finishConnect(AbstractNioChannel.java:291)
	at io.netty.channel.nio.NioEventLoop.processSelectedKey(NioEventLoop.java:640)
	at io.netty.channel.nio.NioEventLoop.processSelectedKeysOptimized(NioEventLoop.java:575)
	at io.netty.channel.nio.NioEventLoop.processSelectedKeys(NioEventLoop.java:489)
	at io.netty.channel.nio.NioEventLoop.run(NioEventLoop.java:451)
	at io.netty.util.concurrent.SingleThreadEventExecutor$2.run(SingleThreadEventExecutor.java:140)
	at io.netty.util.concurrent.DefaultThreadFactory$DefaultRunnableDecorator.run(DefaultThreadFactory.java:144)
	... 1 more
17/05/21 09:48:09 ERROR Worker: All masters are unresponsive! Giving up.
17/05/21 09:48:09 INFO ExecutorRunner: Killing process!
17/05/21 09:48:09 INFO ExecutorRunner: Killing process!
17/05/21 09:48:09 INFO ExecutorRunner: Killing process!
17/05/21 09:48:09 INFO ShutdownHookManager: Shutdown hook called
17/05/21 09:48:09 INFO ShutdownHookManager: Deleting directory /tmp/spark-8a5ce251-0bd6-44c4-a052-8fb59f56486b
